PROCESO 3

DATA TYPE => BIT

	MU_RATE = 0.700000
	X_RATE = 0.600000

	POOL_SIZE = 100

		Best chrom:  0  0  0  0  1  1  0  1  0  1  0  1  0  0  1  0  0  1  0  0  0  0  1  0  0  0  0  1  0  0  1  0  0  1  1  0  0  1  1  1  0  1  0  0  0  0  0  0  0  0  1  0  0  0  1  1  0  0  1  1  1  1  1  0  0  1  0  0  0  0  0  0  0  0  1  0  0  0  0  1  1  0  0  0  1  0  0  0  0  1  0  1  0  1  1  0  0  0  0  0  0  0  0  0  0  0  0  0  1  1  0  0  0  0  0  1  0  1  1  0  1  0  0  1  0  0  0  0  0  0  0  0  0  0  0  0  0  1  0  0  0  1  0  0  0  1  1  0  1  0  0  0  0  0  0  1  0  1  1  0  0  1  0  1  0  0  0  0  0  1  0  0  1  0  0  0  0  1  0  0  0  0  0  0  0  1  1  0  0  1  0  0  0  0  0  1  0  1  0  0  0  0  0  1  0  0  0  1  0  0  1  0  0  1  0  0  1  0  1  0  0  0  0  0  1  0  0  0  1  0  0  0  0  0  0  0  0  0  0  1  1  0  0  0  0  1  0  1  0  0  0  0  0  1  0  0  0  0  0  0  0  1  0  1  0  0  0  0  1  0  0  0  0  0  0  0  0  0  1  1  1  0  1  0  0  0  0  0  0  0  0  0  0  0  1  1  0  1  0  0  0  0  0  0  0  0  0  0  0  0  1  0  0  1  0  0  0  0  0  1  0  1  0  0  0  0  0  0  0  0  0  0  1  1  0  0  0  0  0  0  0  0  1  0  0  0  0  0  0  0  0  0  0  0  1  1  0  1  0  0  0  0  0  0  0  0  0  0  0  1  0  1  1  0  0  0  0  1  0  0  0  0  1  0  0  1  1  0  1  0  0  0  0  0  0  0  0  0  0  1  		   (fitness: 4113)	NumIter = -1

		 0  0  0  0  1  1  0  1  0  1  0  1  0  0  1  0  0  1  0  0 
		 0  0  1  0  0  0  0  1  0  0  1  0  0  1  1  0  0  1  1  1 
		 0  1  0  0  0  0  0  0  0  0  1  0  0  0  1  1  0  0  1  1 
		 1  1  1  0  0  1  0  0  0  0  0  0  0  0  1  0  0  0  0  1 
		 1  0  0  0  1  0  0  0  0  1  0  1  0  1  1  0  0  0  0  0 
		 0  0  0  0  0  0  0  0  1  1  0  0  0  0  0  1  0  1  1  0 
		 1  0  0  1  0  0  0  0  0  0  0  0  0  0  0  0  0  1  0  0 
		 0  1  0  0  0  1  1  0  1  0  0  0  0  0  0  1  0  1  1  0 
		 0  1  0  1  0  0  0  0  0  1  0  0  1  0  0  0  0  1  0  0 
		 0  0  0  0  0  1  1  0  0  1  0  0  0  0  0  1  0  1  0  0 
		 0  0  0  1  0  0  0  1  0  0  1  0  0  1  0  0  1  0  1  0 
		 0  0  0  0  1  0  0  0  1  0  0  0  0  0  0  0  0  0  0  1 
		 1  0  0  0  0  1  0  1  0  0  0  0  0  1  0  0  0  0  0  0 
		 0  1  0  1  0  0  0  0  1  0  0  0  0  0  0  0  0  0  1  1 
		 1  0  1  0  0  0  0  0  0  0  0  0  0  0  1  1  0  1  0  0 
		 0  0  0  0  0  0  0  0  0  0  1  0  0  1  0  0  0  0  0  1 
		 0  1  0  0  0  0  0  0  0  0  0  0  1  1  0  0  0  0  0  0 
		 0  0  1  0  0  0  0  0  0  0  0  0  0  0  1  1  0  1  0  0 
		 0  0  0  0  0  0  0  0  0  1  0  1  1  0  0  0  0  1  0  0 
		 0  0  1  0  0  1  1  0  1  0  0  0  0  0  0  0  0  0  0  1 

DATA TYPE => BIT

	MU_RATE = 0.700000
	X_RATE = 0.600000

	POOL_SIZE = 150

		Best chrom:  0  0  0  0  0  0  0  1  0  1  0  0  0  0  0  1  0  0  0  0  0  0  0  0  0  0  0  1  0  0  0  0  0  0  0  1  0  0  0  0  0  0  0  0  0  0  0  0  0  0  0  1  1  1  0  0  0  0  0  0  0  0  0  0  0  1  0  0  0  0  0  0  0  0  0  0  0  0  0  0  0  0  0  0  0  1  0  0  0  0  0  0  0  0  0  0  0  1  1  0  1  1  0  0  0  0  0  1  0  0  0  0  0  0  0  1  0  0  1  0  0  0  0  0  0  0  0  1  0  0  0  0  0  0  0  0  0  0  0  0  0  0  1  0  0  0  0  0  0  0  0  0  0  0  0  1  0  0  0  0  0  0  0  0  0  0  0  0  0  0  0  0  0  0  0  0  0  0  0  1  1  0  0  0  0  0  0  0  0  0  0  0  0  0  0  0  0  1  0  0  0  1  0  0  0  0  0  0  0  0  0  0  0  0  0  0  0  1  0  0  0  0  0  1  0  0  0  0  0  0  0  0  0  0  0  0  0  0  1  1  0  0  0  0  0  0  0  1  0  0  0  0  0  0  0  1  0  0  0  0  0  0  0  0  0  0  0  0  0  0  1  0  0  0  0  0  0  0  0  1  1  0  0  0  0  0  1  0  0  0  0  0  0  0  0  0  0  0  0  1  1  0  1  0  0  0  0  0  0  0  1  1  0  0  0  0  0  0  0  1  1  0  0  0  0  0  1  0  0  0  0  0  0  0  0  0  0  0  0  0  0  1  1  0  0  0  0  0  0  0  0  0  0  1  0  0  0  0  0  0  0  0  0  1  0  0  0  1  1  1  0  1  0  0  0  0  0  0  0  0  0  0  0  0  0  0  0  1  0  0  0  0  0  0  0  0  0  0  1  0  		   (fitness: 1005)	NumIter = -1

		 0  0  0  0  0  0  0  1  0  1  0  0  0  0  0  1  0  0  0  0 
		 0  0  0  0  0  0  0  1  0  0  0  0  0  0  0  1  0  0  0  0 
		 0  0  0  0  0  0  0  0  0  0  0  1  1  1  0  0  0  0  0  0 
		 0  0  0  0  0  1  0  0  0  0  0  0  0  0  0  0  0  0  0  0 
		 0  0  0  0  0  1  0  0  0  0  0  0  0  0  0  0  0  1  1  0 
		 1  1  0  0  0  0  0  1  0  0  0  0  0  0  0  1  0  0  1  0 
		 0  0  0  0  0  0  0  1  0  0  0  0  0  0  0  0  0  0  0  0 
		 0  0  1  0  0  0  0  0  0  0  0  0  0  0  0  1  0  0  0  0 
		 0  0  0  0  0  0  0  0  0  0  0  0  0  0  0  0  0  0  0  1 
		 1  0  0  0  0  0  0  0  0  0  0  0  0  0  0  0  0  1  0  0 
		 0  1  0  0  0  0  0  0  0  0  0  0  0  0  0  0  0  1  0  0 
		 0  0  0  1  0  0  0  0  0  0  0  0  0  0  0  0  0  0  1  1 
		 0  0  0  0  0  0  0  1  0  0  0  0  0  0  0  1  0  0  0  0 
		 0  0  0  0  0  0  0  0  0  0  1  0  0  0  0  0  0  0  0  1 
		 1  0  0  0  0  0  1  0  0  0  0  0  0  0  0  0  0  0  0  1 
		 1  0  1  0  0  0  0  0  0  0  1  1  0  0  0  0  0  0  0  1 
		 1  0  0  0  0  0  1  0  0  0  0  0  0  0  0  0  0  0  0  0 
		 0  1  1  0  0  0  0  0  0  0  0  0  0  1  0  0  0  0  0  0 
		 0  0  0  1  0  0  0  1  1  1  0  1  0  0  0  0  0  0  0  0 
		 0  0  0  0  0  0  0  1  0  0  0  0  0  0  0  0  0  0  1  0 

DATA TYPE => BIT

	MU_RATE = 0.700000
	X_RATE = 0.600000

	POOL_SIZE = 200

		Best chrom:  1  0  0  0  0  1  0  0  0  0  0  0  0  1  1  0  1  0  0  0  1  0  0  0  0  0  0  1  0  0  1  0  0  0  0  0  0  0  0  0  0  0  0  1  0  0  0  0  0  0  1  0  0  0  0  0  0  0  0  0  0  0  0  0  0  1  0  0  0  1  0  0  0  0  0  1  0  0  0  0  1  0  0  0  0  0  1  0  0  0  1  0  0  0  0  0  0  1  0  1  0  0  0  0  0  0  1  0  0  0  1  0  0  0  0  0  0  1  0  0  1  1  0  0  0  0  0  0  0  0  0  0  0  0  0  0  0  0  0  0  0  0  0  0  0  0  0  0  0  0  0  0  0  0  0  0  0  1  0  0  0  0  0  0  1  0  0  0  0  0  0  0  0  0  0  0  0  1  0  0  1  1  0  0  1  0  0  0  0  0  0  0  0  0  0  0  1  0  0  0  0  0  0  0  0  0  0  0  0  0  0  0  0  0  0  0  0  1  0  0  0  0  0  1  0  0  0  0  1  0  0  0  0  0  0  0  0  1  0  0  0  1  0  0  0  0  0  0  0  0  0  0  0  0  0  0  0  0  0  1  0  0  0  0  0  0  0  0  0  0  0  0  0  0  0  1  0  1  0  0  1  0  0  0  0  0  0  0  0  0  0  0  0  0  0  0  0  0  0  0  0  0  1  1  0  0  0  0  0  0  0  1  0  0  0  0  1  0  0  0  0  0  0  0  0  0  0  0  0  0  0  0  0  0  0  0  0  0  0  0  0  0  0  0  0  0  0  1  0  0  0  0  0  0  0  0  0  0  0  0  0  0  0  0  0  1  0  0  0  1  0  0  0  0  0  0  1  0  0  0  0  0  0  0  0  0  0  1  0  0  0  0  1  0  1  1  0  1  0  0  		   (fitness: 965)	NumIter = -1

		 1  0  0  0  0  1  0  0  0  0  0  0  0  1  1  0  1  0  0  0 
		 1  0  0  0  0  0  0  1  0  0  1  0  0  0  0  0  0  0  0  0 
		 0  0  0  1  0  0  0  0  0  0  1  0  0  0  0  0  0  0  0  0 
		 0  0  0  0  0  1  0  0  0  1  0  0  0  0  0  1  0  0  0  0 
		 1  0  0  0  0  0  1  0  0  0  1  0  0  0  0  0  0  1  0  1 
		 0  0  0  0  0  0  1  0  0  0  1  0  0  0  0  0  0  1  0  0 
		 1  1  0  0  0  0  0  0  0  0  0  0  0  0  0  0  0  0  0  0 
		 0  0  0  0  0  0  0  0  0  0  0  0  0  0  0  0  0  1  0  0 
		 0  0  0  0  1  0  0  0  0  0  0  0  0  0  0  0  0  1  0  0 
		 1  1  0  0  1  0  0  0  0  0  0  0  0  0  0  0  1  0  0  0 
		 0  0  0  0  0  0  0  0  0  0  0  0  0  0  0  0  0  1  0  0 
		 0  0  0  1  0  0  0  0  1  0  0  0  0  0  0  0  0  1  0  0 
		 0  1  0  0  0  0  0  0  0  0  0  0  0  0  0  0  0  0  0  1 
		 0  0  0  0  0  0  0  0  0  0  0  0  0  0  0  1  0  1  0  0 
		 1  0  0  0  0  0  0  0  0  0  0  0  0  0  0  0  0  0  0  0 
		 0  0  1  1  0  0  0  0  0  0  0  1  0  0  0  0  1  0  0  0 
		 0  0  0  0  0  0  0  0  0  0  0  0  0  0  0  0  0  0  0  0 
		 0  0  0  0  0  0  0  1  0  0  0  0  0  0  0  0  0  0  0  0 
		 0  0  0  0  0  1  0  0  0  1  0  0  0  0  0  0  1  0  0  0 
		 0  0  0  0  0  0  0  1  0  0  0  0  1  0  1  1  0  1  0  0 

DATA TYPE => BIT

	MU_RATE = 0.700000
	X_RATE = 0.700000

	POOL_SIZE = 100

		Best chrom:  1  0  0  1  0  0  1  0  0  0  0  1  1  0  0  0  0  0  0  0  0  0  0  0  0  0  0  0  1  1  0  1  0  0  1  0  0  0  1  0  0  0  0  0  0  0  0  0  0  1  0  0  1  0  0  1  0  0  0  1  0  1  0  1  0  0  0  0  0  0  1  0  0  0  1  0  0  1  0  0  0  0  0  0  0  0  0  1  0  1  0  0  0  1  0  0  0  0  1  0  1  0  0  0  0  1  0  0  1  0  0  0  0  0  0  0  0  0  0  0  1  0  0  0  0  0  1  1  0  0  0  0  0  0  0  0  0  0  0  0  1  0  1  1  0  0  0  0  0  0  0  0  0  0  0  0  0  0  1  1  1  0  0  0  0  0  0  0  0  0  0  0  0  0  0  0  0  0  1  0  1  0  0  0  0  0  0  0  0  1  0  0  0  1  0  0  0  0  0  0  1  0  1  0  0  0  1  0  0  0  0  0  0  0  0  1  0  0  0  0  0  0  0  0  0  0  0  0  0  0  1  0  0  1  0  1  1  1  0  0  0  0  0  0  0  1  0  1  0  0  0  0  0  1  0  0  1  0  0  0  1  1  0  0  0  0  0  0  0  0  0  0  0  0  0  0  1  0  0  1  0  0  0  0  1  1  0  1  0  1  0  0  0  0  0  0  0  0  0  0  0  0  1  0  0  0  1  1  0  0  0  0  0  0  0  0  0  0  1  0  0  0  0  0  0  0  0  0  0  1  0  0  0  0  0  0  0  1  0  1  1  0  0  0  0  1  0  0  0  0  0  1  0  0  0  0  0  0  0  0  0  0  0  0  0  0  0  0  0  1  0  0  0  0  1  0  0  0  0  0  0  0  0  0  0  1  1  0  0  1  0  0  0  0  0  0  1  1  0  0  		   (fitness: 2446)	NumIter = -1

		 1  0  0  1  0  0  1  0  0  0  0  1  1  0  0  0  0  0  0  0 
		 0  0  0  0  0  0  0  0  1  1  0  1  0  0  1  0  0  0  1  0 
		 0  0  0  0  0  0  0  0  0  1  0  0  1  0  0  1  0  0  0  1 
		 0  1  0  1  0  0  0  0  0  0  1  0  0  0  1  0  0  1  0  0 
		 0  0  0  0  0  0  0  1  0  1  0  0  0  1  0  0  0  0  1  0 
		 1  0  0  0  0  1  0  0  1  0  0  0  0  0  0  0  0  0  0  0 
		 1  0  0  0  0  0  1  1  0  0  0  0  0  0  0  0  0  0  0  0 
		 1  0  1  1  0  0  0  0  0  0  0  0  0  0  0  0  0  0  1  1 
		 1  0  0  0  0  0  0  0  0  0  0  0  0  0  0  0  0  0  1  0 
		 1  0  0  0  0  0  0  0  0  1  0  0  0  1  0  0  0  0  0  0 
		 1  0  1  0  0  0  1  0  0  0  0  0  0  0  0  1  0  0  0  0 
		 0  0  0  0  0  0  0  0  0  0  1  0  0  1  0  1  1  1  0  0 
		 0  0  0  0  0  1  0  1  0  0  0  0  0  1  0  0  1  0  0  0 
		 1  1  0  0  0  0  0  0  0  0  0  0  0  0  0  0  1  0  0  1 
		 0  0  0  0  1  1  0  1  0  1  0  0  0  0  0  0  0  0  0  0 
		 0  0  1  0  0  0  1  1  0  0  0  0  0  0  0  0  0  0  1  0 
		 0  0  0  0  0  0  0  0  0  1  0  0  0  0  0  0  0  1  0  1 
		 1  0  0  0  0  1  0  0  0  0  0  1  0  0  0  0  0  0  0  0 
		 0  0  0  0  0  0  0  0  0  1  0  0  0  0  1  0  0  0  0  0 
		 0  0  0  0  0  1  1  0  0  1  0  0  0  0  0  0  1  1  0  0 

DATA TYPE => BIT

	MU_RATE = 0.700000
	X_RATE = 0.700000

	POOL_SIZE = 150

		Best chrom:  1  0  1  0  0  0  0  0  0  0  0  0  0  0  0  0  0  0  0  0  0  0  0  0  0  0  0  0  0  0  0  0  0  0  0  0  0  0  0  0  0  0  0  0  0  0  0  0  0  1  0  0  0  0  1  0  0  1  0  0  0  0  0  1  0  0  0  0  0  0  0  0  0  0  0  0  0  0  0  0  1  1  0  0  0  0  0  0  0  0  0  0  0  1  1  0  0  0  0  1  1  0  1  0  0  0  0  0  0  0  0  0  0  0  0  0  0  0  0  0  0  0  0  0  0  0  0  0  0  0  0  0  0  0  0  0  0  0  0  1  0  0  0  0  0  0  0  0  0  0  0  0  0  0  0  0  0  0  0  0  1  0  0  1  0  0  0  0  0  0  0  0  0  0  0  0  0  0  0  0  0  1  0  0  0  0  0  0  0  0  0  0  1  0  0  1  0  0  0  0  0  0  1  0  0  0  0  0  0  0  0  0  0  0  0  0  0  1  0  0  0  1  0  0  0  0  0  0  0  0  0  0  0  0  0  0  0  0  0  1  0  0  0  0  0  0  0  0  0  0  1  0  0  0  0  0  0  1  0  0  0  1  0  0  0  0  0  0  0  0  0  0  0  1  0  0  0  0  0  0  0  0  0  1  0  0  1  0  0  0  0  0  0  1  0  0  0  0  0  0  0  0  0  1  0  0  0  0  0  0  0  0  0  0  0  0  0  0  0  1  0  0  0  0  0  0  1  0  1  1  0  0  0  1  0  0  0  0  0  0  0  0  0  0  0  0  0  0  0  0  0  0  0  0  0  0  0  0  1  0  0  0  0  0  0  0  0  0  1  0  0  0  1  0  0  0  1  0  0  1  0  0  1  0  0  0  0  0  0  0  0  0  0  0  1  0  0  0  0  0  		   (fitness: 675)	NumIter = -1

		 1  0  1  0  0  0  0  0  0  0  0  0  0  0  0  0  0  0  0  0 
		 0  0  0  0  0  0  0  0  0  0  0  0  0  0  0  0  0  0  0  0 
		 0  0  0  0  0  0  0  0  0  1  0  0  0  0  1  0  0  1  0  0 
		 0  0  0  1  0  0  0  0  0  0  0  0  0  0  0  0  0  0  0  0 
		 1  1  0  0  0  0  0  0  0  0  0  0  0  1  1  0  0  0  0  1 
		 1  0  1  0  0  0  0  0  0  0  0  0  0  0  0  0  0  0  0  0 
		 0  0  0  0  0  0  0  0  0  0  0  0  0  0  0  0  0  0  0  1 
		 0  0  0  0  0  0  0  0  0  0  0  0  0  0  0  0  0  0  0  0 
		 1  0  0  1  0  0  0  0  0  0  0  0  0  0  0  0  0  0  0  0 
		 0  1  0  0  0  0  0  0  0  0  0  0  1  0  0  1  0  0  0  0 
		 0  0  1  0  0  0  0  0  0  0  0  0  0  0  0  0  0  1  0  0 
		 0  1  0  0  0  0  0  0  0  0  0  0  0  0  0  0  0  0  0  1 
		 0  0  0  0  0  0  0  0  0  0  1  0  0  0  0  0  0  1  0  0 
		 0  1  0  0  0  0  0  0  0  0  0  0  0  1  0  0  0  0  0  0 
		 0  0  0  1  0  0  1  0  0  0  0  0  0  1  0  0  0  0  0  0 
		 0  0  0  1  0  0  0  0  0  0  0  0  0  0  0  0  0  0  0  1 
		 0  0  0  0  0  0  1  0  1  1  0  0  0  1  0  0  0  0  0  0 
		 0  0  0  0  0  0  0  0  0  0  0  0  0  0  0  0  0  0  1  0 
		 0  0  0  0  0  0  0  0  1  0  0  0  1  0  0  0  1  0  0  1 
		 0  0  1  0  0  0  0  0  0  0  0  0  0  0  1  0  0  0  0  0 

DATA TYPE => BIT

	MU_RATE = 0.700000
	X_RATE = 0.700000

	POOL_SIZE = 200

		Best chrom:  0  0  0  0  0  0  0  0  0  0  0  0  0  0  0  0  1  0  0  0  0  1  0  0  0  0  1  0  0  0  1  0  0  0  1  0  0  0  0  0  0  0  0  0  0  0  0  0  0  1  0  0  0  0  0  0  0  0  0  0  0  0  0  0  0  0  1  0  0  0  0  0  0  0  0  0  0  0  1  0  0  0  1  0  0  0  1  0  0  0  0  0  0  0  0  0  0  0  1  0  0  0  0  0  0  0  0  0  1  0  0  0  0  0  0  0  0  0  0  0  0  0  0  0  0  0  1  0  0  0  0  0  0  0  0  0  0  0  1  0  0  0  0  0  0  1  0  0  0  1  0  0  0  0  0  0  1  0  0  1  0  0  0  0  0  0  0  0  0  0  0  0  0  0  0  0  0  0  0  0  1  0  1  0  0  0  0  0  0  0  0  0  0  0  0  0  0  0  0  0  1  0  0  0  1  0  0  0  0  0  0  0  0  0  0  0  1  0  0  0  0  0  0  0  0  0  0  0  1  0  0  0  0  0  0  0  0  0  1  0  0  0  0  0  0  0  0  0  0  0  0  0  1  0  0  0  1  0  0  0  0  0  0  0  1  0  0  0  0  0  0  0  0  0  0  0  0  0  0  0  1  0  1  1  0  0  0  1  0  0  0  1  0  0  0  0  0  0  0  1  0  0  1  0  0  0  0  0  0  0  0  1  0  0  0  0  0  0  0  1  0  0  0  0  1  0  0  0  1  0  1  0  0  0  0  0  0  0  0  0  0  0  0  0  1  0  0  0  0  0  0  0  0  1  0  0  0  0  0  0  0  0  0  0  1  0  0  0  0  1  0  0  0  0  0  0  0  1  0  1  0  0  0  0  0  0  0  0  0  1  0  1  0  0  0  0  0  0  0  0  		   (fitness: 871)	NumIter = -1

		 0  0  0  0  0  0  0  0  0  0  0  0  0  0  0  0  1  0  0  0 
		 0  1  0  0  0  0  1  0  0  0  1  0  0  0  1  0  0  0  0  0 
		 0  0  0  0  0  0  0  0  0  1  0  0  0  0  0  0  0  0  0  0 
		 0  0  0  0  0  0  1  0  0  0  0  0  0  0  0  0  0  0  1  0 
		 0  0  1  0  0  0  1  0  0  0  0  0  0  0  0  0  0  0  1  0 
		 0  0  0  0  0  0  0  0  1  0  0  0  0  0  0  0  0  0  0  0 
		 0  0  0  0  0  0  1  0  0  0  0  0  0  0  0  0  0  0  1  0 
		 0  0  0  0  0  1  0  0  0  1  0  0  0  0  0  0  1  0  0  1 
		 0  0  0  0  0  0  0  0  0  0  0  0  0  0  0  0  0  0  0  0 
		 1  0  1  0  0  0  0  0  0  0  0  0  0  0  0  0  0  0  0  0 
		 1  0  0  0  1  0  0  0  0  0  0  0  0  0  0  0  1  0  0  0 
		 0  0  0  0  0  0  0  0  1  0  0  0  0  0  0  0  0  0  1  0 
		 0  0  0  0  0  0  0  0  0  0  0  0  1  0  0  0  1  0  0  0 
		 0  0  0  0  1  0  0  0  0  0  0  0  0  0  0  0  0  0  0  0 
		 1  0  1  1  0  0  0  1  0  0  0  1  0  0  0  0  0  0  0  1 
		 0  0  1  0  0  0  0  0  0  0  0  1  0  0  0  0  0  0  0  1 
		 0  0  0  0  1  0  0  0  1  0  1  0  0  0  0  0  0  0  0  0 
		 0  0  0  0  1  0  0  0  0  0  0  0  0  1  0  0  0  0  0  0 
		 0  0  0  0  1  0  0  0  0  1  0  0  0  0  0  0  0  1  0  1 
		 0  0  0  0  0  0  0  0  0  1  0  1  0  0  0  0  0  0  0  0 

DATA TYPE => BIT

	MU_RATE = 0.700000
	X_RATE = 0.800000

	POOL_SIZE = 100

		Best chrom:  0  0  0  0  1  0  0  0  0  0  0  0  0  0  0  0  0  1  0  0  0  0  0  0  1  0  0  1  0  0  1  0  0  1  0  0  0  0  0  0  0  1  0  0  0  1  0  0  0  0  0  0  1  0  0  1  0  0  0  0  0  0  0  0  0  1  1  0  1  0  0  0  0  0  0  0  0  1  0  1  0  1  0  0  0  0  0  0  1  1  0  0  1  0  1  1  0  0  0  0  1  0  1  0  0  0  0  1  0  0  0  0  0  0  0  0  0  0  0  1  0  1  0  1  1  0  0  0  0  0  1  0  0  0  0  0  1  1  0  0  0  0  0  0  1  0  0  0  0  1  0  0  1  0  0  0  0  0  1  0  0  0  1  0  0  0  0  0  1  0  0  1  0  0  0  1  1  1  0  0  0  0  1  0  1  1  0  0  0  0  0  0  1  0  1  0  0  0  0  1  0  1  0  0  0  0  1  0  1  0  1  0  0  0  1  1  0  0  0  1  0  1  0  0  0  0  0  0  0  0  0  1  1  1  0  0  0  0  0  0  0  0  0  1  1  0  0  0  0  0  0  0  0  0  0  0  0  0  1  1  0  1  1  0  0  0  1  0  1  0  0  0  0  0  0  0  0  0  0  0  0  0  0  0  0  0  0  0  1  0  0  0  0  0  0  0  1  0  0  0  1  0  1  1  1  0  0  0  0  0  0  1  0  0  0  0  0  1  0  0  0  0  1  1  0  1  0  0  1  1  0  1  0  0  0  1  0  0  0  1  1  0  0  0  0  0  0  1  0  1  0  0  0  1  0  0  1  0  1  0  0  0  0  0  0  0  1  0  0  0  0  0  1  0  1  0  0  0  0  0  0  0  1  0  0  1  1  0  0  0  0  1  0  0  1  0  0  0  0  1  		   (fitness: 4101)	NumIter = -1

		 0  0  0  0  1  0  0  0  0  0  0  0  0  0  0  0  0  1  0  0 
		 0  0  0  0  1  0  0  1  0  0  1  0  0  1  0  0  0  0  0  0 
		 0  1  0  0  0  1  0  0  0  0  0  0  1  0  0  1  0  0  0  0 
		 0  0  0  0  0  1  1  0  1  0  0  0  0  0  0  0  0  1  0  1 
		 0  1  0  0  0  0  0  0  1  1  0  0  1  0  1  1  0  0  0  0 
		 1  0  1  0  0  0  0  1  0  0  0  0  0  0  0  0  0  0  0  1 
		 0  1  0  1  1  0  0  0  0  0  1  0  0  0  0  0  1  1  0  0 
		 0  0  0  0  1  0  0  0  0  1  0  0  1  0  0  0  0  0  1  0 
		 0  0  1  0  0  0  0  0  1  0  0  1  0  0  0  1  1  1  0  0 
		 0  0  1  0  1  1  0  0  0  0  0  0  1  0  1  0  0  0  0  1 
		 0  1  0  0  0  0  1  0  1  0  1  0  0  0  1  1  0  0  0  1 
		 0  1  0  0  0  0  0  0  0  0  0  1  1  1  0  0  0  0  0  0 
		 0  0  0  1  1  0  0  0  0  0  0  0  0  0  0  0  0  0  1  1 
		 0  1  1  0  0  0  1  0  1  0  0  0  0  0  0  0  0  0  0  0 
		 0  0  0  0  0  0  0  0  1  0  0  0  0  0  0  0  1  0  0  0 
		 1  0  1  1  1  0  0  0  0  0  0  1  0  0  0  0  0  1  0  0 
		 0  0  1  1  0  1  0  0  1  1  0  1  0  0  0  1  0  0  0  1 
		 1  0  0  0  0  0  0  1  0  1  0  0  0  1  0  0  1  0  1  0 
		 0  0  0  0  0  0  1  0  0  0  0  0  1  0  1  0  0  0  0  0 
		 0  0  1  0  0  1  1  0  0  0  0  1  0  0  1  0  0  0  0  1 

DATA TYPE => BIT

	MU_RATE = 0.700000
	X_RATE = 0.800000

	POOL_SIZE = 150

		Best chrom:  0  1  1  1  0  0  0  0  0  0  0  0  0  1  0  0  0  1  0  0  1  0  0  0  0  0  0  0  0  0  0  0  0  0  1  0  0  0  1  0  0  0  0  0  0  0  0  0  0  0  0  0  0  0  0  0  0  0  1  0  0  0  0  0  0  0  0  0  0  0  0  0  1  0  0  0  0  0  0  0  0  1  0  0  0  0  0  1  0  0  0  0  0  0  0  0  0  1  0  0  0  0  0  0  1  1  0  0  0  0  0  0  0  0  0  1  0  0  0  1  1  0  0  0  0  0  0  1  0  0  0  0  0  0  0  0  0  0  0  1  1  0  0  0  0  0  0  0  0  0  1  0  0  0  1  1  0  0  0  0  0  0  0  0  0  0  0  0  0  0  0  0  0  0  0  0  0  0  1  0  0  0  0  1  1  0  0  0  0  0  0  0  0  0  0  0  1  0  0  0  1  0  1  0  0  0  1  0  0  0  0  0  0  0  0  0  0  0  0  0  0  1  0  0  0  0  0  0  0  0  0  1  0  0  0  0  1  0  0  0  0  0  0  0  0  1  0  0  0  0  0  0  0  1  0  0  0  0  0  0  0  0  0  0  0  0  0  0  1  0  0  0  0  0  0  0  0  1  1  0  0  0  0  0  1  0  0  0  0  0  0  0  0  0  0  0  0  0  0  0  1  0  0  0  1  0  0  0  1  1  0  0  1  0  1  0  0  0  0  0  1  0  0  0  0  0  1  0  0  1  0  0  0  0  0  0  0  0  1  1  1  0  0  0  0  0  1  0  0  0  0  0  0  0  0  0  0  1  0  0  0  1  1  1  0  0  0  0  0  0  0  0  0  0  0  0  0  0  0  1  0  1  0  0  0  0  0  0  1  0  1  1  0  0  1  0  0  0  0  0  		   (fitness: 1526)	NumIter = -1

		 0  1  1  1  0  0  0  0  0  0  0  0  0  1  0  0  0  1  0  0 
		 1  0  0  0  0  0  0  0  0  0  0  0  0  0  1  0  0  0  1  0 
		 0  0  0  0  0  0  0  0  0  0  0  0  0  0  0  0  0  0  1  0 
		 0  0  0  0  0  0  0  0  0  0  0  0  1  0  0  0  0  0  0  0 
		 0  1  0  0  0  0  0  1  0  0  0  0  0  0  0  0  0  1  0  0 
		 0  0  0  0  1  1  0  0  0  0  0  0  0  0  0  1  0  0  0  1 
		 1  0  0  0  0  0  0  1  0  0  0  0  0  0  0  0  0  0  0  1 
		 1  0  0  0  0  0  0  0  0  0  1  0  0  0  1  1  0  0  0  0 
		 0  0  0  0  0  0  0  0  0  0  0  0  0  0  0  0  0  0  1  0 
		 0  0  0  1  1  0  0  0  0  0  0  0  0  0  0  0  1  0  0  0 
		 1  0  1  0  0  0  1  0  0  0  0  0  0  0  0  0  0  0  0  0 
		 0  1  0  0  0  0  0  0  0  0  0  1  0  0  0  0  1  0  0  0 
		 0  0  0  0  0  1  0  0  0  0  0  0  0  1  0  0  0  0  0  0 
		 0  0  0  0  0  0  0  0  1  0  0  0  0  0  0  0  0  1  1  0 
		 0  0  0  0  1  0  0  0  0  0  0  0  0  0  0  0  0  0  0  0 
		 1  0  0  0  1  0  0  0  1  1  0  0  1  0  1  0  0  0  0  0 
		 1  0  0  0  0  0  1  0  0  1  0  0  0  0  0  0  0  0  1  1 
		 1  0  0  0  0  0  1  0  0  0  0  0  0  0  0  0  0  1  0  0 
		 0  1  1  1  0  0  0  0  0  0  0  0  0  0  0  0  0  0  0  1 
		 0  1  0  0  0  0  0  0  1  0  1  1  0  0  1  0  0  0  0  0 

DATA TYPE => BIT

	MU_RATE = 0.700000
	X_RATE = 0.800000

	POOL_SIZE = 200

		Best chrom:  0  0  0  1  1  0  0  0  0  1  0  1  0  0  0  1  1  0  0  0  0  0  0  0  0  0  0  1  0  0  0  1  0  0  0  0  1  0  0  1  0  0  0  0  0  0  0  0  0  1  0  0  0  0  0  0  0  1  0  0  0  1  1  0  0  0  0  1  0  0  0  0  0  0  0  0  0  0  0  1  0  0  0  0  0  0  0  0  0  0  0  0  0  0  0  0  0  1  0  0  1  0  0  0  0  0  0  0  0  0  1  0  0  1  0  0  0  0  0  0  0  0  0  0  0  0  0  0  0  0  0  0  0  0  0  0  1  0  0  0  0  0  0  0  0  0  0  0  0  0  0  0  0  0  0  0  0  0  0  0  0  1  0  0  0  0  0  0  0  0  0  0  0  0  0  0  0  1  0  0  0  0  1  0  0  0  0  0  0  0  0  0  1  0  0  1  0  0  0  0  0  0  0  0  0  1  0  0  0  0  0  0  0  0  1  1  0  0  0  0  1  0  0  0  0  0  0  0  0  0  0  0  0  0  0  0  0  1  1  0  0  0  0  0  0  0  0  0  0  0  0  0  0  0  0  0  0  1  0  1  0  0  0  0  0  0  0  0  0  0  0  0  0  0  1  0  0  0  0  0  0  0  0  0  0  0  0  0  0  0  0  0  0  0  0  0  0  0  0  0  0  0  0  0  0  0  1  1  0  0  0  0  0  0  0  0  0  1  0  0  1  1  0  0  0  0  1  0  0  0  0  0  0  0  0  0  0  0  0  0  0  0  0  1  0  0  0  0  0  0  0  1  0  0  0  0  0  0  0  0  0  0  0  0  0  1  0  0  1  0  0  0  0  1  0  0  0  0  0  0  0  0  0  0  0  0  0  1  1  0  0  0  0  0  0  0  0  0  0  0  		   (fitness: 825)	NumIter = -1

		 0  0  0  1  1  0  0  0  0  1  0  1  0  0  0  1  1  0  0  0 
		 0  0  0  0  0  0  0  1  0  0  0  1  0  0  0  0  1  0  0  1 
		 0  0  0  0  0  0  0  0  0  1  0  0  0  0  0  0  0  1  0  0 
		 0  1  1  0  0  0  0  1  0  0  0  0  0  0  0  0  0  0  0  1 
		 0  0  0  0  0  0  0  0  0  0  0  0  0  0  0  0  0  1  0  0 
		 1  0  0  0  0  0  0  0  0  0  1  0  0  1  0  0  0  0  0  0 
		 0  0  0  0  0  0  0  0  0  0  0  0  0  0  0  0  1  0  0  0 
		 0  0  0  0  0  0  0  0  0  0  0  0  0  0  0  0  0  0  0  0 
		 0  1  0  0  0  0  0  0  0  0  0  0  0  0  0  0  0  1  0  0 
		 0  0  1  0  0  0  0  0  0  0  0  0  1  0  0  1  0  0  0  0 
		 0  0  0  0  0  1  0  0  0  0  0  0  0  0  1  1  0  0  0  0 
		 1  0  0  0  0  0  0  0  0  0  0  0  0  0  0  0  0  1  1  0 
		 0  0  0  0  0  0  0  0  0  0  0  0  0  0  0  0  0  1  0  1 
		 0  0  0  0  0  0  0  0  0  0  0  0  0  0  1  0  0  0  0  0 
		 0  0  0  0  0  0  0  0  0  0  0  0  0  0  0  0  0  0  0  0 
		 0  0  0  0  0  0  1  1  0  0  0  0  0  0  0  0  0  1  0  0 
		 1  1  0  0  0  0  1  0  0  0  0  0  0  0  0  0  0  0  0  0 
		 0  0  0  1  0  0  0  0  0  0  0  1  0  0  0  0  0  0  0  0 
		 0  0  0  0  0  1  0  0  1  0  0  0  0  1  0  0  0  0  0  0 
		 0  0  0  0  0  0  0  1  1  0  0  0  0  0  0  0  0  0  0  0 

DATA TYPE => BIT

	MU_RATE = 0.800000
	X_RATE = 0.600000

	POOL_SIZE = 100

		Best chrom:  0  0  0  0  1  0  0  0  0  0  1  0  0  0  1  0  0  0  0  1  0  1  1  1  0  0  1  1  0  0  1  0  0  0  1  0  0  0  0  1  0  0  1  0  0  0  0  0  0  0  0  0  0  0  0  0  0  1  0  0  0  0  0  0  0  1  0  0  0  0  0  1  0  1  1  0  0  0  1  0  0  0  0  0  1  0  0  1  0  0  0  0  0  0  0  0  0  0  1  1  0  0  1  0  0  0  0  0  0  1  0  0  0  0  0  0  0  1  1  0  0  0  0  0  0  0  0  0  0  0  1  0  0  1  0  1  0  0  1  0  0  0  1  1  0  0  0  0  0  0  1  0  0  0  0  1  0  0  1  0  0  1  0  0  1  0  0  1  0  0  0  0  0  0  0  1  0  0  0  1  0  1  0  0  1  0  0  0  0  0  0  0  1  0  0  1  0  0  0  0  0  0  0  0  0  0  0  1  0  0  1  0  0  1  0  0  1  0  0  0  1  1  0  0  0  0  0  0  0  0  0  0  1  0  0  1  0  1  0  1  0  0  1  1  0  0  0  0  0  1  0  0  1  0  0  0  0  0  0  1  1  0  0  1  0  0  0  1  0  0  1  0  0  0  0  0  1  0  1  0  1  0  0  0  0  0  0  0  0  0  0  1  1  0  0  0  0  0  0  0  1  1  0  1  1  0  0  0  0  0  0  0  0  0  0  0  0  0  0  0  0  1  0  0  0  0  1  0  0  0  0  1  0  0  0  0  0  0  0  1  1  0  0  1  0  0  1  0  0  0  0  0  0  0  0  1  0  0  0  0  0  0  0  0  1  0  1  0  1  1  0  1  0  0  0  0  0  0  0  0  1  0  0  0  0  0  0  1  0  1  0  0  0  0  1  0  0  0  0  0  		   (fitness: 3314)	NumIter = -1

		 0  0  0  0  1  0  0  0  0  0  1  0  0  0  1  0  0  0  0  1 
		 0  1  1  1  0  0  1  1  0  0  1  0  0  0  1  0  0  0  0  1 
		 0  0  1  0  0  0  0  0  0  0  0  0  0  0  0  0  0  1  0  0 
		 0  0  0  0  0  1  0  0  0  0  0  1  0  1  1  0  0  0  1  0 
		 0  0  0  0  1  0  0  1  0  0  0  0  0  0  0  0  0  0  1  1 
		 0  0  1  0  0  0  0  0  0  1  0  0  0  0  0  0  0  1  1  0 
		 0  0  0  0  0  0  0  0  0  0  1  0  0  1  0  1  0  0  1  0 
		 0  0  1  1  0  0  0  0  0  0  1  0  0  0  0  1  0  0  1  0 
		 0  1  0  0  1  0  0  1  0  0  0  0  0  0  0  1  0  0  0  1 
		 0  1  0  0  1  0  0  0  0  0  0  0  1  0  0  1  0  0  0  0 
		 0  0  0  0  0  0  0  1  0  0  1  0  0  1  0  0  1  0  0  0 
		 1  1  0  0  0  0  0  0  0  0  0  0  1  0  0  1  0  1  0  1 
		 0  0  1  1  0  0  0  0  0  1  0  0  1  0  0  0  0  0  0  1 
		 1  0  0  1  0  0  0  1  0  0  1  0  0  0  0  0  1  0  1  0 
		 1  0  0  0  0  0  0  0  0  0  0  1  1  0  0  0  0  0  0  0 
		 1  1  0  1  1  0  0  0  0  0  0  0  0  0  0  0  0  0  0  0 
		 0  1  0  0  0  0  1  0  0  0  0  1  0  0  0  0  0  0  0  1 
		 1  0  0  1  0  0  1  0  0  0  0  0  0  0  0  1  0  0  0  0 
		 0  0  0  0  1  0  1  0  1  1  0  1  0  0  0  0  0  0  0  0 
		 1  0  0  0  0  0  0  1  0  1  0  0  0  0  1  0  0  0  0  0 

DATA TYPE => BIT

	MU_RATE = 0.800000
	X_RATE = 0.600000

	POOL_SIZE = 150

		Best chrom:  0  0  1  0  0  0  0  0  1  0  0  0  1  0  0  0  0  0  0  0  0  0  0  0  0  1  0  0  0  0  0  0  0  1  0  1  0  0  0  0  0  0  1  1  0  0  0  0  0  0  0  0  1  0  0  0  0  0  0  0  0  0  0  0  1  0  0  0  0  0  0  0  0  0  0  0  0  0  0  0  0  1  0  0  1  0  0  0  0  0  0  0  0  0  0  0  0  1  0  0  0  0  0  0  0  0  0  0  0  0  0  0  0  0  0  0  0  0  0  0  0  0  0  0  1  0  0  0  0  0  1  0  0  0  0  0  1  0  1  0  1  0  0  0  1  0  1  0  0  0  0  0  0  1  0  0  0  0  0  0  0  1  0  0  0  0  0  0  0  0  1  0  0  0  0  0  0  0  0  0  0  1  0  0  0  0  0  0  0  0  0  0  0  0  0  0  1  0  0  0  0  0  0  0  0  0  0  1  0  0  0  1  0  0  0  0  0  0  0  1  0  0  0  0  0  0  0  0  0  0  0  0  0  0  0  0  0  0  0  0  0  0  0  0  0  0  1  0  0  0  0  0  0  0  0  0  0  0  0  0  0  0  0  1  0  0  0  0  0  0  0  0  0  0  0  0  0  1  0  0  0  0  0  0  0  0  0  0  0  0  0  0  0  0  0  0  0  1  0  0  0  0  0  0  0  0  0  0  0  0  0  0  0  0  0  0  0  0  0  0  0  0  0  0  0  0  0  0  0  0  1  0  0  0  0  0  1  1  0  0  0  0  0  0  0  0  1  0  0  0  0  0  0  0  0  0  1  0  0  0  1  0  0  0  0  1  0  0  0  0  1  0  0  0  0  0  0  0  0  0  0  1  0  0  0  0  0  0  1  0  0  0  0  0  0  0  0  0  0  0  		   (fitness: 707)	NumIter = -1

		 0  0  1  0  0  0  0  0  1  0  0  0  1  0  0  0  0  0  0  0 
		 0  0  0  0  0  1  0  0  0  0  0  0  0  1  0  1  0  0  0  0 
		 0  0  1  1  0  0  0  0  0  0  0  0  1  0  0  0  0  0  0  0 
		 0  0  0  0  1  0  0  0  0  0  0  0  0  0  0  0  0  0  0  0 
		 0  1  0  0  1  0  0  0  0  0  0  0  0  0  0  0  0  1  0  0 
		 0  0  0  0  0  0  0  0  0  0  0  0  0  0  0  0  0  0  0  0 
		 0  0  0  0  1  0  0  0  0  0  1  0  0  0  0  0  1  0  1  0 
		 1  0  0  0  1  0  1  0  0  0  0  0  0  1  0  0  0  0  0  0 
		 0  1  0  0  0  0  0  0  0  0  1  0  0  0  0  0  0  0  0  0 
		 0  1  0  0  0  0  0  0  0  0  0  0  0  0  0  0  1  0  0  0 
		 0  0  0  0  0  0  0  1  0  0  0  1  0  0  0  0  0  0  0  1 
		 0  0  0  0  0  0  0  0  0  0  0  0  0  0  0  0  0  0  0  0 
		 0  0  0  0  0  0  1  0  0  0  0  0  0  0  0  0  0  0  0  0 
		 0  0  0  1  0  0  0  0  0  0  0  0  0  0  0  0  0  1  0  0 
		 0  0  0  0  0  0  0  0  0  0  0  0  0  0  0  0  0  1  0  0 
		 0  0  0  0  0  0  0  0  0  0  0  0  0  0  0  0  0  0  0  0 
		 0  0  0  0  0  0  0  0  0  0  1  0  0  0  0  0  1  1  0  0 
		 0  0  0  0  0  0  1  0  0  0  0  0  0  0  0  0  1  0  0  0 
		 1  0  0  0  0  1  0  0  0  0  1  0  0  0  0  0  0  0  0  0 
		 0  1  0  0  0  0  0  0  1  0  0  0  0  0  0  0  0  0  0  0 

DATA TYPE => BIT

	MU_RATE = 0.800000
	X_RATE = 0.600000

	POOL_SIZE = 200

		Best chrom:  0  0  0  0  0  0  0  0  0  0  0  0  0  0  0  0  0  0  0  0  0  0  0  0  0  0  0  0  0  0  0  0  1  0  0  0  0  0  0  0  0  0  0  0  0  0  0  0  0  0  0  0  0  0  0  0  0  0  0  0  0  0  0  0  0  0  0  0  0  0  0  0  0  0  0  1  0  0  0  0  1  0  0  0  0  0  0  0  0  0  0  1  0  0  0  0  0  0  0  0  0  0  0  1  0  0  0  0  1  0  0  0  0  0  0  0  0  0  0  1  1  0  0  0  0  0  0  0  0  0  1  0  0  0  0  0  0  0  0  0  1  0  0  0  1  0  0  0  0  0  0  0  0  0  0  0  1  0  0  1  1  1  0  0  0  0  0  0  0  0  0  0  1  0  0  0  0  1  0  1  0  0  0  0  0  0  0  0  0  0  0  0  0  0  0  0  0  0  0  1  0  0  0  0  0  0  0  0  0  0  0  0  0  0  0  0  0  0  0  0  0  0  0  0  0  0  0  0  0  0  0  0  0  0  0  0  0  0  0  0  0  0  0  1  0  0  0  1  0  0  0  0  0  0  0  0  0  0  0  0  0  1  0  0  1  0  0  0  0  0  0  0  0  0  0  0  0  0  0  1  1  0  0  0  0  0  0  0  1  1  0  0  0  0  0  0  0  0  0  0  0  0  0  0  0  0  0  0  0  0  0  0  1  0  0  1  1  0  1  0  0  0  0  0  0  0  0  0  0  0  0  0  0  0  0  0  0  1  0  0  0  0  0  0  0  1  0  0  0  1  0  0  0  0  0  0  0  0  0  0  0  0  0  0  0  0  0  0  1  0  0  0  0  0  1  0  0  0  0  0  1  0  0  0  0  0  0  1  1  0  0  0  0  0  0  0  0  0  0  0  		   (fitness: 563)	NumIter = -1

		 0  0  0  0  0  0  0  0  0  0  0  0  0  0  0  0  0  0  0  0 
		 0  0  0  0  0  0  0  0  0  0  0  0  1  0  0  0  0  0  0  0 
		 0  0  0  0  0  0  0  0  0  0  0  0  0  0  0  0  0  0  0  0 
		 0  0  0  0  0  0  0  0  0  0  0  0  0  0  0  1  0  0  0  0 
		 1  0  0  0  0  0  0  0  0  0  0  1  0  0  0  0  0  0  0  0 
		 0  0  0  1  0  0  0  0  1  0  0  0  0  0  0  0  0  0  0  1 
		 1  0  0  0  0  0  0  0  0  0  1  0  0  0  0  0  0  0  0  0 
		 1  0  0  0  1  0  0  0  0  0  0  0  0  0  0  0  1  0  0  1 
		 1  1  0  0  0  0  0  0  0  0  0  0  1  0  0  0  0  1  0  1 
		 0  0  0  0  0  0  0  0  0  0  0  0  0  0  0  0  0  0  0  1 
		 0  0  0  0  0  0  0  0  0  0  0  0  0  0  0  0  0  0  0  0 
		 0  0  0  0  0  0  0  0  0  0  0  0  0  0  0  0  0  0  0  0 
		 0  0  0  1  0  0  0  1  0  0  0  0  0  0  0  0  0  0  0  0 
		 0  1  0  0  1  0  0  0  0  0  0  0  0  0  0  0  0  0  0  1 
		 1  0  0  0  0  0  0  0  1  1  0  0  0  0  0  0  0  0  0  0 
		 0  0  0  0  0  0  0  0  0  0  0  0  1  0  0  1  1  0  1  0 
		 0  0  0  0  0  0  0  0  0  0  0  0  0  0  0  0  0  1  0  0 
		 0  0  0  0  0  1  0  0  0  1  0  0  0  0  0  0  0  0  0  0 
		 0  0  0  0  0  0  0  0  1  0  0  0  0  0  1  0  0  0  0  0 
		 1  0  0  0  0  0  0  1  1  0  0  0  0  0  0  0  0  0  0  0 

DATA TYPE => BIT

	MU_RATE = 0.800000
	X_RATE = 0.700000

	POOL_SIZE = 100

		Best chrom:  0  0  0  0  1  0  1  0  0  0  0  0  1  1  0  1  1  0  0  0  0  0  0  0  0  1  0  1  0  1  0  0  0  0  0  0  0  0  0  1  0  0  0  0  0  1  0  0  0  0  0  0  0  1  1  1  0  0  0  1  0  1  0  1  0  0  0  0  0  0  1  0  0  0  0  0  0  0  0  1  0  0  0  1  0  0  0  0  1  0  0  0  0  0  0  0  0  0  0  0  0  0  0  0  0  0  1  0  0  0  0  0  0  1  1  0  1  0  0  0  0  1  0  0  0  0  0  0  0  0  0  1  0  0  0  0  0  1  0  0  0  0  0  0  0  1  0  0  0  0  1  0  0  0  1  0  1  0  0  0  0  1  0  0  0  0  0  1  0  0  1  0  0  0  0  1  0  0  0  1  1  1  0  0  0  0  1  0  0  1  0  0  0  0  0  0  0  1  0  0  1  0  0  0  0  0  0  0  0  0  0  0  0  0  0  0  1  0  0  0  0  0  0  0  0  1  0  0  0  1  0  0  0  0  0  0  0  0  0  0  0  0  0  0  0  1  0  0  0  0  0  0  0  0  0  0  0  0  0  1  0  0  0  0  0  1  0  0  0  0  0  0  0  1  0  0  0  0  1  0  1  0  0  1  0  0  0  0  0  0  0  0  0  1  1  0  1  0  0  0  1  0  0  0  0  0  0  0  1  0  0  0  0  0  0  0  0  0  1  1  0  0  0  1  0  0  0  0  0  1  0  0  0  1  0  0  0  0  0  0  1  0  0  0  0  1  0  0  0  0  0  1  0  0  0  0  1  0  0  0  0  0  0  0  0  0  0  0  0  0  0  0  1  1  0  1  0  0  0  0  0  1  1  0  0  0  0  0  0  0  0  0  1  1  0  0  1  0  0  0  		   (fitness: 2317)	NumIter = -1

		 0  0  0  0  1  0  1  0  0  0  0  0  1  1  0  1  1  0  0  0 
		 0  0  0  0  0  1  0  1  0  1  0  0  0  0  0  0  0  0  0  1 
		 0  0  0  0  0  1  0  0  0  0  0  0  0  1  1  1  0  0  0  1 
		 0  1  0  1  0  0  0  0  0  0  1  0  0  0  0  0  0  0  0  1 
		 0  0  0  1  0  0  0  0  1  0  0  0  0  0  0  0  0  0  0  0 
		 0  0  0  0  0  0  1  0  0  0  0  0  0  1  1  0  1  0  0  0 
		 0  1  0  0  0  0  0  0  0  0  0  1  0  0  0  0  0  1  0  0 
		 0  0  0  0  0  1  0  0  0  0  1  0  0  0  1  0  1  0  0  0 
		 0  1  0  0  0  0  0  1  0  0  1  0  0  0  0  1  0  0  0  1 
		 1  1  0  0  0  0  1  0  0  1  0  0  0  0  0  0  0  1  0  0 
		 1  0  0  0  0  0  0  0  0  0  0  0  0  0  0  0  1  0  0  0 
		 0  0  0  0  0  1  0  0  0  1  0  0  0  0  0  0  0  0  0  0 
		 0  0  0  0  0  1  0  0  0  0  0  0  0  0  0  0  0  0  0  1 
		 0  0  0  0  0  1  0  0  0  0  0  0  0  1  0  0  0  0  1  0 
		 1  0  0  1  0  0  0  0  0  0  0  0  0  1  1  0  1  0  0  0 
		 1  0  0  0  0  0  0  0  1  0  0  0  0  0  0  0  0  0  1  1 
		 0  0  0  1  0  0  0  0  0  1  0  0  0  1  0  0  0  0  0  0 
		 1  0  0  0  0  1  0  0  0  0  0  1  0  0  0  0  1  0  0  0 
		 0  0  0  0  0  0  0  0  0  0  0  0  1  1  0  1  0  0  0  0 
		 0  1  1  0  0  0  0  0  0  0  0  0  1  1  0  0  1  0  0  0 

DATA TYPE => BIT

	MU_RATE = 0.800000
	X_RATE = 0.700000

	POOL_SIZE = 150

		Best chrom:  0  0  0  0  1  0  0  1  1  1  1  0  0  0  0  0  0  0  0  0  0  0  0  0  0  0  0  0  0  0  0  0  0  1  0  0  0  0  0  0  0  0  0  0  0  0  0  0  0  0  0  0  0  0  0  0  0  0  0  0  0  0  0  0  0  0  0  0  1  0  1  0  0  0  0  0  0  0  0  0  0  0  0  0  0  0  0  0  0  0  0  1  0  0  0  0  0  0  0  1  0  0  0  0  0  0  0  1  0  0  0  0  0  0  0  1  0  0  0  0  0  0  0  0  0  0  0  0  0  0  0  0  0  0  0  0  0  0  0  0  0  0  0  0  0  0  0  0  0  0  0  0  0  0  0  0  0  1  0  0  0  0  0  0  0  0  0  0  0  0  0  0  0  0  0  0  0  0  0  0  0  0  0  0  0  0  1  1  0  0  0  0  0  0  0  0  0  0  0  0  0  0  0  0  0  0  0  0  0  0  0  0  0  0  0  1  0  0  0  0  0  0  0  0  0  0  0  0  0  0  1  0  0  0  0  0  0  1  0  0  1  0  0  0  0  0  0  0  0  0  0  0  0  0  0  0  0  0  0  0  0  0  0  0  1  0  0  0  0  0  0  0  0  0  0  1  0  1  0  0  0  0  1  0  0  0  0  0  0  0  0  0  1  0  0  1  0  1  0  0  0  0  0  0  0  0  0  1  0  0  0  0  0  0  0  0  0  0  0  0  0  0  0  0  0  0  0  0  0  0  0  0  0  0  0  0  0  0  0  0  0  0  0  0  0  0  0  0  0  0  0  0  0  0  0  0  0  0  0  0  0  1  0  0  0  0  0  0  0  1  0  1  0  0  0  0  0  0  0  0  0  0  0  0  0  0  1  0  1  0  0  0  1  0  0  0  0  0  0  0  		   (fitness: 378)	NumIter = -1

		 0  0  0  0  1  0  0  1  1  1  1  0  0  0  0  0  0  0  0  0 
		 0  0  0  0  0  0  0  0  0  0  0  0  0  1  0  0  0  0  0  0 
		 0  0  0  0  0  0  0  0  0  0  0  0  0  0  0  0  0  0  0  0 
		 0  0  0  0  0  0  0  0  1  0  1  0  0  0  0  0  0  0  0  0 
		 0  0  0  0  0  0  0  0  0  0  0  1  0  0  0  0  0  0  0  1 
		 0  0  0  0  0  0  0  1  0  0  0  0  0  0  0  1  0  0  0  0 
		 0  0  0  0  0  0  0  0  0  0  0  0  0  0  0  0  0  0  0  0 
		 0  0  0  0  0  0  0  0  0  0  0  0  0  0  0  0  0  1  0  0 
		 0  0  0  0  0  0  0  0  0  0  0  0  0  0  0  0  0  0  0  0 
		 0  0  0  0  0  0  1  1  0  0  0  0  0  0  0  0  0  0  0  0 
		 0  0  0  0  0  0  0  0  0  0  0  0  0  0  0  1  0  0  0  0 
		 0  0  0  0  0  0  0  0  0  0  1  0  0  0  0  0  0  1  0  0 
		 1  0  0  0  0  0  0  0  0  0  0  0  0  0  0  0  0  0  0  0 
		 0  0  0  0  1  0  0  0  0  0  0  0  0  0  0  1  0  1  0  0 
		 0  0  1  0  0  0  0  0  0  0  0  0  1  0  0  1  0  1  0  0 
		 0  0  0  0  0  0  0  1  0  0  0  0  0  0  0  0  0  0  0  0 
		 0  0  0  0  0  0  0  0  0  0  0  0  0  0  0  0  0  0  0  0 
		 0  0  0  0  0  0  0  0  0  0  0  0  0  0  0  0  0  0  0  0 
		 0  1  0  0  0  0  0  0  0  1  0  1  0  0  0  0  0  0  0  0 
		 0  0  0  0  0  0  1  0  1  0  0  0  1  0  0  0  0  0  0  0 

DATA TYPE => BIT

	MU_RATE = 0.800000
	X_RATE = 0.700000

	POOL_SIZE = 200

		Best chrom:  0  0  0  0  0  0  0  1  0  0  0  0  0  0  0  0  0  0  0  0  0  0  0  0  0  0  0  1  0  0  0  0  0  0  0  0  0  0  0  1  0  0  0  0  0  0  0  0  0  0  0  0  0  0  0  0  0  0  0  0  0  1  0  0  0  0  0  0  0  0  0  0  0  0  0  0  0  0  0  0  0  0  0  0  0  0  1  0  0  0  0  0  0  0  1  0  0  0  0  1  0  0  0  0  0  0  0  0  0  0  1  0  0  0  0  0  0  0  0  0  1  0  0  0  0  0  0  0  0  0  0  0  0  0  0  0  0  0  0  0  0  0  0  0  1  0  0  0  0  0  0  0  0  0  0  1  0  0  1  0  0  0  0  0  1  1  0  0  0  0  0  0  0  0  0  0  0  0  0  0  0  0  0  0  0  0  0  0  0  0  0  0  1  0  0  0  0  0  0  0  0  1  0  0  0  0  0  0  0  0  0  0  0  0  0  0  0  0  0  0  1  0  0  0  0  0  1  0  0  0  0  0  0  0  0  0  0  0  0  0  0  0  0  0  0  0  0  0  0  0  0  0  1  0  0  0  1  1  0  0  0  0  0  0  0  0  0  0  0  0  0  0  0  0  0  0  0  0  0  0  0  0  0  0  0  0  0  0  0  0  0  0  0  0  0  0  0  0  0  0  0  0  0  0  0  0  0  0  0  0  0  0  0  0  0  0  1  0  0  0  0  0  0  0  0  0  0  0  0  0  0  0  0  0  0  0  0  0  0  0  0  0  0  0  0  0  0  0  0  0  0  0  0  0  0  0  0  0  0  0  0  0  0  0  0  0  0  0  0  0  0  0  0  0  1  0  0  0  0  0  0  1  0  0  0  0  0  1  0  0  0  0  0  0  0  0  0  0  0  0  		   (fitness: 142)	NumIter = -1

		 0  0  0  0  0  0  0  1  0  0  0  0  0  0  0  0  0  0  0  0 
		 0  0  0  0  0  0  0  1  0  0  0  0  0  0  0  0  0  0  0  1 
		 0  0  0  0  0  0  0  0  0  0  0  0  0  0  0  0  0  0  0  0 
		 0  1  0  0  0  0  0  0  0  0  0  0  0  0  0  0  0  0  0  0 
		 0  0  0  0  0  0  1  0  0  0  0  0  0  0  1  0  0  0  0  1 
		 0  0  0  0  0  0  0  0  0  0  1  0  0  0  0  0  0  0  0  0 
		 1  0  0  0  0  0  0  0  0  0  0  0  0  0  0  0  0  0  0  0 
		 0  0  0  0  1  0  0  0  0  0  0  0  0  0  0  1  0  0  1  0 
		 0  0  0  0  1  1  0  0  0  0  0  0  0  0  0  0  0  0  0  0 
		 0  0  0  0  0  0  0  0  0  0  0  0  1  0  0  0  0  0  0  0 
		 0  1  0  0  0  0  0  0  0  0  0  0  0  0  0  0  0  0  0  0 
		 1  0  0  0  0  0  1  0  0  0  0  0  0  0  0  0  0  0  0  0 
		 0  0  0  0  0  0  0  0  0  0  0  0  1  0  0  0  1  1  0  0 
		 0  0  0  0  0  0  0  0  0  0  0  0  0  0  0  0  0  0  0  0 
		 0  0  0  0  0  0  0  0  0  0  0  0  0  0  0  0  0  0  0  0 
		 0  0  0  0  0  0  0  0  0  0  0  0  0  0  0  0  1  0  0  0 
		 0  0  0  0  0  0  0  0  0  0  0  0  0  0  0  0  0  0  0  0 
		 0  0  0  0  0  0  0  0  0  0  0  0  0  0  0  0  0  0  0  0 
		 0  0  0  0  0  0  0  0  0  0  0  0  0  0  1  0  0  0  0  0 
		 0  1  0  0  0  0  0  1  0  0  0  0  0  0  0  0  0  0  0  0 

DATA TYPE => BIT

	MU_RATE = 0.800000
	X_RATE = 0.800000

	POOL_SIZE = 100

		Best chrom:  0  0  0  0  0  0  0  0  0  0  0  1  0  0  0  0  1  0  0  0  0  0  0  0  0  0  0  0  0  1  0  1  1  0  0  1  0  0  0  0  0  0  0  0  0  0  1  0  0  0  0  0  0  0  0  0  0  0  0  0  0  1  0  0  0  0  0  0  0  1  0  0  0  0  0  0  1  0  1  1  0  0  0  0  0  0  0  0  0  0  0  1  0  1  0  0  0  0  0  0  0  0  0  0  0  1  0  0  0  0  0  0  0  0  0  0  0  0  0  1  0  0  0  0  0  0  0  0  0  1  1  0  1  0  0  0  0  0  0  0  0  1  1  0  0  0  0  0  0  0  0  0  0  0  0  1  0  0  1  0  1  0  0  1  0  0  0  0  0  0  0  0  0  0  0  0  1  0  0  1  1  0  0  0  0  0  1  0  0  0  0  0  0  0  0  0  0  0  0  0  1  0  0  1  0  0  0  0  0  0  0  0  0  0  0  0  0  0  0  0  0  0  0  1  0  0  0  0  0  1  0  0  0  0  0  0  0  1  1  0  1  0  0  0  1  0  0  0  0  0  0  0  0  0  0  0  0  1  0  1  0  1  0  0  0  0  0  0  0  1  0  0  0  0  0  0  0  0  0  0  0  0  0  0  0  0  0  0  0  0  1  0  0  0  0  0  1  0  0  1  0  0  0  0  1  0  0  0  0  0  0  0  0  0  0  0  0  1  0  0  0  0  0  0  0  0  0  0  0  1  0  0  0  0  0  0  0  0  0  0  1  0  0  1  0  0  0  1  0  0  0  1  0  0  0  0  0  1  0  0  0  1  0  1  0  0  0  0  0  0  0  0  0  0  0  1  0  0  0  0  1  0  0  0  1  0  0  1  0  0  1  1  0  1  0  0  1  0  1  0  		   (fitness: 1396)	NumIter = -1

		 0  0  0  0  0  0  0  0  0  0  0  1  0  0  0  0  1  0  0  0 
		 0  0  0  0  0  0  0  0  0  1  0  1  1  0  0  1  0  0  0  0 
		 0  0  0  0  0  0  1  0  0  0  0  0  0  0  0  0  0  0  0  0 
		 0  1  0  0  0  0  0  0  0  1  0  0  0  0  0  0  1  0  1  1 
		 0  0  0  0  0  0  0  0  0  0  0  1  0  1  0  0  0  0  0  0 
		 0  0  0  0  0  1  0  0  0  0  0  0  0  0  0  0  0  0  0  1 
		 0  0  0  0  0  0  0  0  0  1  1  0  1  0  0  0  0  0  0  0 
		 0  1  1  0  0  0  0  0  0  0  0  0  0  0  0  1  0  0  1  0 
		 1  0  0  1  0  0  0  0  0  0  0  0  0  0  0  0  1  0  0  1 
		 1  0  0  0  0  0  1  0  0  0  0  0  0  0  0  0  0  0  0  0 
		 1  0  0  1  0  0  0  0  0  0  0  0  0  0  0  0  0  0  0  0 
		 0  0  0  1  0  0  0  0  0  1  0  0  0  0  0  0  0  1  1  0 
		 1  0  0  0  1  0  0  0  0  0  0  0  0  0  0  0  0  1  0  1 
		 0  1  0  0  0  0  0  0  0  1  0  0  0  0  0  0  0  0  0  0 
		 0  0  0  0  0  0  0  0  0  0  1  0  0  0  0  0  1  0  0  1 
		 0  0  0  0  1  0  0  0  0  0  0  0  0  0  0  0  0  1  0  0 
		 0  0  0  0  0  0  0  0  0  1  0  0  0  0  0  0  0  0  0  0 
		 1  0  0  1  0  0  0  1  0  0  0  1  0  0  0  0  0  1  0  0 
		 0  1  0  1  0  0  0  0  0  0  0  0  0  0  0  1  0  0  0  0 
		 1  0  0  0  1  0  0  1  0  0  1  1  0  1  0  0  1  0  1  0 

DATA TYPE => BIT

	MU_RATE = 0.800000
	X_RATE = 0.800000

	POOL_SIZE = 150

		Best chrom:  0  0  0  0  0  1  1  0  0  1  0  0  0  0  0  0  0  0  0  0  0  0  0  0  0  0  0  0  0  0  0  0  0  0  0  0  0  0  0  0  0  0  0  0  0  0  0  0  0  1  0  0  0  0  0  0  0  0  0  0  0  0  0  0  0  1  0  1  0  0  0  0  0  0  0  1  0  0  0  0  0  0  0  1  0  1  0  1  0  0  0  0  1  1  0  0  0  0  0  1  0  1  0  0  0  0  0  0  0  0  0  0  0  0  0  1  0  1  0  0  0  0  1  0  0  0  1  0  0  0  0  0  0  1  0  0  0  1  0  0  0  0  0  0  0  0  0  0  0  0  0  0  0  0  0  0  0  0  0  0  0  1  0  1  0  1  0  0  0  0  0  0  0  0  0  1  1  0  0  0  0  0  0  0  0  0  0  0  0  0  0  0  0  0  0  0  0  0  0  0  0  0  0  0  0  0  0  0  0  0  0  0  0  0  0  0  0  0  0  0  0  0  0  0  0  0  0  0  0  0  0  0  0  0  0  0  1  0  0  0  0  0  1  0  0  0  0  0  0  0  0  0  0  0  0  0  0  1  0  0  0  0  0  0  0  0  0  0  0  0  0  0  0  0  0  0  0  1  0  0  0  0  0  0  0  0  0  0  0  0  0  0  0  0  0  0  0  0  0  0  0  1  0  0  0  0  0  0  0  0  0  0  0  0  0  0  0  0  1  1  0  0  0  1  0  0  0  0  0  0  0  0  0  0  1  1  0  0  1  0  0  0  0  0  1  0  0  0  1  0  0  0  0  0  0  0  0  0  0  0  0  0  1  0  0  0  0  0  0  0  1  0  0  0  1  0  0  0  1  0  0  0  0  0  0  0  0  0  0  0  0  0  0  0  0  0  0  0  0  0  		   (fitness: 615)	NumIter = -1

		 0  0  0  0  0  1  1  0  0  1  0  0  0  0  0  0  0  0  0  0 
		 0  0  0  0  0  0  0  0  0  0  0  0  0  0  0  0  0  0  0  0 
		 0  0  0  0  0  0  0  0  0  1  0  0  0  0  0  0  0  0  0  0 
		 0  0  0  0  0  1  0  1  0  0  0  0  0  0  0  1  0  0  0  0 
		 0  0  0  1  0  1  0  1  0  0  0  0  1  1  0  0  0  0  0  1 
		 0  1  0  0  0  0  0  0  0  0  0  0  0  0  0  1  0  1  0  0 
		 0  0  1  0  0  0  1  0  0  0  0  0  0  1  0  0  0  1  0  0 
		 0  0  0  0  0  0  0  0  0  0  0  0  0  0  0  0  0  0  0  0 
		 0  1  0  1  0  1  0  0  0  0  0  0  0  0  0  1  1  0  0  0 
		 0  0  0  0  0  0  0  0  0  0  0  0  0  0  0  0  0  0  0  0 
		 0  0  0  0  0  0  0  0  0  0  0  0  0  0  0  0  0  0  0  0 
		 0  0  0  0  0  0  0  0  0  0  0  0  0  0  0  0  1  0  0  0 
		 0  0  1  0  0  0  0  0  0  0  0  0  0  0  0  0  0  1  0  0 
		 0  0  0  0  0  0  0  0  0  0  0  0  0  0  0  0  0  1  0  0 
		 0  0  0  0  0  0  0  0  0  0  0  0  0  0  0  0  0  0  0  0 
		 0  1  0  0  0  0  0  0  0  0  0  0  0  0  0  0  0  0  1  1 
		 0  0  0  1  0  0  0  0  0  0  0  0  0  0  1  1  0  0  1  0 
		 0  0  0  0  1  0  0  0  1  0  0  0  0  0  0  0  0  0  0  0 
		 0  0  1  0  0  0  0  0  0  0  1  0  0  0  1  0  0  0  1  0 
		 0  0  0  0  0  0  0  0  0  0  0  0  0  0  0  0  0  0  0  0 

DATA TYPE => BIT

	MU_RATE = 0.800000
	X_RATE = 0.800000

	POOL_SIZE = 200

		Best chrom:  0  0  0  0  1  0  0  0  0  0  0  0  0  0  0  0  0  1  0  0  0  0  0  0  0  0  0  0  0  0  0  1  0  0  0  0  0  0  0  0  0  0  0  1  0  0  0  0  0  0  0  0  0  0  0  0  1  0  0  0  1  0  0  0  0  0  0  0  0  0  0  0  0  0  0  0  0  0  1  0  0  0  0  0  0  0  0  0  0  0  0  0  0  0  0  0  0  0  0  0  0  0  0  0  0  0  0  0  0  0  1  0  0  0  0  0  0  0  0  0  0  0  0  0  0  0  0  0  0  0  0  0  0  0  0  0  0  0  0  1  1  0  0  0  0  0  0  0  0  0  0  0  0  0  0  0  0  1  0  0  1  0  0  0  0  0  0  0  0  0  0  0  0  0  0  0  0  0  0  0  0  0  0  0  0  0  0  0  0  0  0  0  0  0  0  0  0  0  0  0  0  0  0  0  0  0  0  0  0  0  0  0  0  0  0  0  0  0  0  0  0  0  0  0  0  0  0  0  0  0  0  0  0  0  0  0  0  0  0  0  0  0  0  0  0  0  0  0  0  0  0  0  0  0  0  0  0  0  0  0  0  0  0  0  0  0  0  0  0  0  0  0  0  0  0  0  0  0  0  0  0  0  1  0  0  0  0  0  0  0  0  0  0  0  0  0  0  0  1  0  0  0  0  0  0  1  0  0  0  0  0  1  0  0  0  1  0  0  0  0  0  0  0  0  0  0  0  0  0  0  0  0  0  0  0  0  0  0  0  1  0  0  0  0  0  0  0  0  0  0  0  0  0  0  0  0  0  0  0  1  0  0  0  0  0  0  0  0  0  0  0  0  0  1  0  0  0  0  0  0  0  0  0  0  0  0  0  0  0  0  0  0  0  0  0  0  0  0  0  0  		   (fitness: 25)	NumIter = -1

		 0  0  0  0  1  0  0  0  0  0  0  0  0  0  0  0  0  1  0  0 
		 0  0  0  0  0  0  0  0  0  0  0  1  0  0  0  0  0  0  0  0 
		 0  0  0  1  0  0  0  0  0  0  0  0  0  0  0  0  1  0  0  0 
		 1  0  0  0  0  0  0  0  0  0  0  0  0  0  0  0  0  0  1  0 
		 0  0  0  0  0  0  0  0  0  0  0  0  0  0  0  0  0  0  0  0 
		 0  0  0  0  0  0  0  0  0  0  1  0  0  0  0  0  0  0  0  0 
		 0  0  0  0  0  0  0  0  0  0  0  0  0  0  0  0  0  0  0  1 
		 1  0  0  0  0  0  0  0  0  0  0  0  0  0  0  0  0  1  0  0 
		 1  0  0  0  0  0  0  0  0  0  0  0  0  0  0  0  0  0  0  0 
		 0  0  0  0  0  0  0  0  0  0  0  0  0  0  0  0  0  0  0  0 
		 0  0  0  0  0  0  0  0  0  0  0  0  0  0  0  0  0  0  0  0 
		 0  0  0  0  0  0  0  0  0  0  0  0  0  0  0  0  0  0  0  0 
		 0  0  0  0  0  0  0  0  0  0  0  0  0  0  0  0  0  0  0  0 
		 0  0  0  0  0  0  0  0  0  0  0  0  0  0  0  0  0  0  0  0 
		 0  0  1  0  0  0  0  0  0  0  0  0  0  0  0  0  0  0  1  0 
		 0  0  0  0  0  1  0  0  0  0  0  1  0  0  0  1  0  0  0  0 
		 0  0  0  0  0  0  0  0  0  0  0  0  0  0  0  0  0  0  0  1 
		 0  0  0  0  0  0  0  0  0  0  0  0  0  0  0  0  0  0  0  1 
		 0  0  0  0  0  0  0  0  0  0  0  0  0  1  0  0  0  0  0  0 
		 0  0  0  0  0  0  0  0  0  0  0  0  0  0  0  0  0  0  0  0 

DATA TYPE => BIT

	MU_RATE = 0.900000
	X_RATE = 0.600000

	POOL_SIZE = 100

		Best chrom:  0  0  0  1  0  0  0  0  0  0  0  0  1  0  1  0  0  0  1  0  0  1  0  0  0  0  0  0  0  1  0  0  0  0  0  0  0  0  0  0  0  0  0  0  0  1  1  1  0  0  0  0  1  0  0  0  0  0  0  1  0  0  0  0  0  0  0  1  1  0  0  0  0  0  0  0  0  0  0  0  0  0  0  0  0  0  0  0  0  0  0  1  0  0  0  1  0  0  0  0  0  0  0  0  0  1  0  0  1  0  0  0  0  0  0  0  0  1  1  0  1  0  0  1  0  0  0  0  0  0  0  0  0  0  0  1  0  0  0  0  0  1  0  0  0  0  0  0  0  1  0  0  0  1  0  0  0  0  1  0  0  0  0  0  0  0  0  0  0  0  0  0  0  0  0  0  1  1  0  0  0  1  0  0  0  0  0  0  0  0  0  1  0  0  0  0  0  0  0  0  0  0  0  0  0  0  0  0  1  0  0  0  0  0  0  0  0  0  0  0  0  1  0  0  0  0  0  0  0  0  0  0  0  0  0  1  1  0  0  0  1  0  0  0  0  1  0  0  0  0  0  0  0  1  0  0  0  0  0  0  0  0  0  0  0  0  0  0  0  0  0  0  0  0  0  0  0  0  0  0  0  0  0  0  1  0  0  0  0  0  0  0  0  0  1  0  1  0  0  1  1  0  1  0  0  0  0  1  1  0  0  0  0  0  0  0  0  0  0  0  0  0  0  1  0  0  0  0  0  0  0  0  0  1  0  0  0  1  0  0  0  0  1  0  0  0  0  0  1  0  0  1  0  0  0  0  0  0  0  0  0  0  0  0  0  0  1  0  1  0  0  0  0  1  0  0  1  0  1  1  0  0  0  0  0  0  0  0  0  0  0  1  1  0  1  0  0  0  0  0  		   (fitness: 1334)	NumIter = -1

		 0  0  0  1  0  0  0  0  0  0  0  0  1  0  1  0  0  0  1  0 
		 0  1  0  0  0  0  0  0  0  1  0  0  0  0  0  0  0  0  0  0 
		 0  0  0  0  0  1  1  1  0  0  0  0  1  0  0  0  0  0  0  1 
		 0  0  0  0  0  0  0  1  1  0  0  0  0  0  0  0  0  0  0  0 
		 0  0  0  0  0  0  0  0  0  0  0  1  0  0  0  1  0  0  0  0 
		 0  0  0  0  0  1  0  0  1  0  0  0  0  0  0  0  0  1  1  0 
		 1  0  0  1  0  0  0  0  0  0  0  0  0  0  0  1  0  0  0  0 
		 0  1  0  0  0  0  0  0  0  1  0  0  0  1  0  0  0  0  1  0 
		 0  0  0  0  0  0  0  0  0  0  0  0  0  0  0  0  1  1  0  0 
		 0  1  0  0  0  0  0  0  0  0  0  1  0  0  0  0  0  0  0  0 
		 0  0  0  0  0  0  0  0  1  0  0  0  0  0  0  0  0  0  0  0 
		 0  1  0  0  0  0  0  0  0  0  0  0  0  0  0  1  1  0  0  0 
		 1  0  0  0  0  1  0  0  0  0  0  0  0  1  0  0  0  0  0  0 
		 0  0  0  0  0  0  0  0  0  0  0  0  0  0  0  0  0  0  0  0 
		 0  0  0  0  1  0  0  0  0  0  0  0  0  0  1  0  1  0  0  1 
		 1  0  1  0  0  0  0  1  1  0  0  0  0  0  0  0  0  0  0  0 
		 0  0  0  1  0  0  0  0  0  0  0  0  0  1  0  0  0  1  0  0 
		 0  0  1  0  0  0  0  0  1  0  0  1  0  0  0  0  0  0  0  0 
		 0  0  0  0  0  0  1  0  1  0  0  0  0  1  0  0  1  0  1  1 
		 0  0  0  0  0  0  0  0  0  0  0  1  1  0  1  0  0  0  0  0 

DATA TYPE => BIT

	MU_RATE = 0.900000
	X_RATE = 0.600000

	POOL_SIZE = 150

		Best chrom:  0  0  0  0  0  0  0  1  0  0  0  0  0  0  0  0  0  0  0  0  0  0  0  0  0  0  0  0  0  0  0  0  0  0  0  0  0  0  0  0  1  1  0  0  0  0  1  0  0  0  1  0  0  0  0  0  0  0  0  1  0  0  0  0  0  0  1  0  0  0  0  0  0  0  0  0  0  0  0  0  0  0  0  0  0  1  0  0  0  0  0  0  0  0  0  0  0  0  1  1  0  0  0  0  0  0  0  0  0  0  0  0  0  0  0  0  0  0  1  0  0  0  0  0  1  0  1  0  1  0  0  0  0  1  0  0  0  0  0  0  0  0  0  0  0  0  0  0  0  0  1  0  0  0  0  0  0  0  1  0  0  0  1  0  0  0  0  0  0  0  0  0  0  0  1  0  0  0  0  1  0  0  1  0  1  0  0  0  0  0  0  0  0  0  0  0  0  0  0  0  0  0  0  0  0  0  0  1  0  0  0  0  0  0  0  1  0  0  0  0  1  0  0  0  0  0  0  0  0  0  0  0  0  0  0  0  0  0  0  0  0  0  1  0  1  0  0  0  0  0  0  0  0  0  0  0  1  0  0  0  0  0  0  0  0  0  0  0  1  0  0  0  0  1  0  1  0  0  0  0  0  1  1  0  0  0  0  0  1  0  0  0  1  0  0  0  0  0  0  1  0  0  0  0  0  0  0  0  0  0  0  0  0  0  0  0  1  0  0  1  0  0  0  0  0  1  0  0  0  0  0  0  0  0  0  0  0  0  0  0  0  0  0  0  0  0  0  1  1  0  0  0  0  1  1  0  0  0  0  0  1  0  0  0  0  0  0  0  0  0  0  0  0  0  0  0  0  0  0  1  0  0  0  0  0  0  1  0  0  0  0  0  1  1  0  0  0  0  1  0  		   (fitness: 886)	NumIter = -1

		 0  0  0  0  0  0  0  1  0  0  0  0  0  0  0  0  0  0  0  0 
		 0  0  0  0  0  0  0  0  0  0  0  0  0  0  0  0  0  0  0  0 
		 1  1  0  0  0  0  1  0  0  0  1  0  0  0  0  0  0  0  0  1 
		 0  0  0  0  0  0  1  0  0  0  0  0  0  0  0  0  0  0  0  0 
		 0  0  0  0  0  1  0  0  0  0  0  0  0  0  0  0  0  0  1  1 
		 0  0  0  0  0  0  0  0  0  0  0  0  0  0  0  0  0  0  1  0 
		 0  0  0  0  1  0  1  0  1  0  0  0  0  1  0  0  0  0  0  0 
		 0  0  0  0  0  0  0  0  0  0  1  0  0  0  0  0  0  0  1  0 
		 0  0  1  0  0  0  0  0  0  0  0  0  0  0  1  0  0  0  0  1 
		 0  0  1  0  1  0  0  0  0  0  0  0  0  0  0  0  0  0  0  0 
		 0  0  0  0  0  0  0  1  0  0  0  0  0  0  0  1  0  0  0  0 
		 1  0  0  0  0  0  0  0  0  0  0  0  0  0  0  0  0  0  0  0 
		 0  0  1  0  1  0  0  0  0  0  0  0  0  0  0  0  1  0  0  0 
		 0  0  0  0  0  0  0  0  1  0  0  0  0  1  0  1  0  0  0  0 
		 0  1  1  0  0  0  0  0  1  0  0  0  1  0  0  0  0  0  0  1 
		 0  0  0  0  0  0  0  0  0  0  0  0  0  0  0  0  1  0  0  1 
		 0  0  0  0  0  1  0  0  0  0  0  0  0  0  0  0  0  0  0  0 
		 0  0  0  0  0  0  0  1  1  0  0  0  0  1  1  0  0  0  0  0 
		 1  0  0  0  0  0  0  0  0  0  0  0  0  0  0  0  0  0  0  1 
		 0  0  0  0  0  0  1  0  0  0  0  0  1  1  0  0  0  0  1  0 

DATA TYPE => BIT

	MU_RATE = 0.900000
	X_RATE = 0.600000

	POOL_SIZE = 200

		Best chrom:  0  0  0  0  0  0  1  1  0  0  0  0  0  0  0  0  0  0  0  0  0  0  0  0  0  0  0  0  0  0  0  0  0  1  0  0  0  0  0  0  0  0  0  0  0  0  0  0  0  0  0  0  0  0  0  0  0  0  1  0  0  0  0  0  0  0  1  0  0  0  0  0  0  0  0  0  0  0  0  0  0  0  0  0  0  0  0  0  0  0  0  0  0  0  0  1  0  0  0  0  0  0  0  0  0  0  0  0  0  0  0  0  0  0  0  0  0  0  0  1  0  0  0  1  0  0  0  0  0  0  1  1  0  0  0  0  0  0  0  0  0  0  0  0  0  0  0  0  0  0  0  0  0  0  0  1  0  0  1  0  0  0  0  0  1  0  0  0  0  0  0  0  0  0  0  0  0  0  0  0  0  0  0  0  0  0  0  0  0  0  0  1  0  0  0  0  0  0  0  0  0  0  0  0  0  0  0  0  0  0  0  0  0  0  0  0  0  0  0  1  1  0  1  0  0  0  0  0  0  0  0  0  0  0  0  0  0  1  0  0  0  0  0  0  0  0  0  0  0  0  0  0  0  0  0  0  0  0  0  0  0  0  0  0  0  1  0  0  0  0  0  0  0  0  0  0  0  0  0  1  0  0  0  0  0  0  0  0  1  0  0  0  0  1  0  0  0  0  0  0  0  0  0  0  0  0  0  0  0  0  0  0  0  0  1  0  0  0  0  1  0  0  0  0  0  1  0  0  0  0  0  0  0  0  0  0  0  0  0  1  0  0  1  0  0  0  0  0  0  0  0  0  0  1  0  0  0  0  0  0  0  0  0  0  0  0  0  0  1  0  0  0  0  0  0  0  0  0  0  1  0  0  1  0  0  0  0  0  0  0  0  1  0  0  0  0  0  0  0  0  		   (fitness: 312)	NumIter = -1

		 0  0  0  0  0  0  1  1  0  0  0  0  0  0  0  0  0  0  0  0 
		 0  0  0  0  0  0  0  0  0  0  0  0  0  1  0  0  0  0  0  0 
		 0  0  0  0  0  0  0  0  0  0  0  0  0  0  0  0  0  0  1  0 
		 0  0  0  0  0  0  1  0  0  0  0  0  0  0  0  0  0  0  0  0 
		 0  0  0  0  0  0  0  0  0  0  0  0  0  0  0  1  0  0  0  0 
		 0  0  0  0  0  0  0  0  0  0  0  0  0  0  0  0  0  0  0  1 
		 0  0  0  1  0  0  0  0  0  0  1  1  0  0  0  0  0  0  0  0 
		 0  0  0  0  0  0  0  0  0  0  0  0  0  0  0  1  0  0  1  0 
		 0  0  0  0  1  0  0  0  0  0  0  0  0  0  0  0  0  0  0  0 
		 0  0  0  0  0  0  0  0  0  0  0  1  0  0  0  0  0  0  0  0 
		 0  0  0  0  0  0  0  0  0  0  0  0  0  0  0  0  0  0  0  1 
		 1  0  1  0  0  0  0  0  0  0  0  0  0  0  0  0  0  1  0  0 
		 0  0  0  0  0  0  0  0  0  0  0  0  0  0  0  0  0  0  0  0 
		 0  0  0  0  0  1  0  0  0  0  0  0  0  0  0  0  0  0  0  1 
		 0  0  0  0  0  0  0  0  1  0  0  0  0  1  0  0  0  0  0  0 
		 0  0  0  0  0  0  0  0  0  0  0  0  0  0  1  0  0  0  0  1 
		 0  0  0  0  0  1  0  0  0  0  0  0  0  0  0  0  0  0  0  1 
		 0  0  1  0  0  0  0  0  0  0  0  0  0  1  0  0  0  0  0  0 
		 0  0  0  0  0  0  0  0  1  0  0  0  0  0  0  0  0  0  0  1 
		 0  0  1  0  0  0  0  0  0  0  0  1  0  0  0  0  0  0  0  0 

DATA TYPE => BIT

	MU_RATE = 0.900000
	X_RATE = 0.700000

	POOL_SIZE = 100

		Best chrom:  0  0  0  0  1  1  0  0  1  0  0  0  0  0  0  0  1  0  1  0  0  0  0  0  1  0  0  1  0  1  0  0  1  0  0  0  0  0  0  0  0  1  0  0  0  0  0  0  0  0  0  0  0  1  0  0  0  0  0  0  0  0  1  0  0  1  0  0  0  1  1  0  0  1  0  0  0  0  0  1  0  1  1  0  0  0  0  0  0  0  0  0  0  0  0  0  0  0  0  0  1  0  0  0  0  0  0  0  0  1  0  0  0  0  0  0  1  0  0  0  1  0  0  0  0  0  0  0  0  0  0  0  0  0  0  1  0  0  0  0  0  0  0  0  0  0  0  0  0  0  0  0  0  0  0  0  0  0  0  0  1  1  1  0  1  0  0  0  0  0  0  0  0  0  0  0  1  1  0  0  1  0  0  0  0  0  1  0  0  0  0  0  0  0  0  0  0  0  0  0  0  0  0  0  0  1  0  0  0  0  0  0  0  1  1  1  1  0  0  0  0  0  0  0  0  0  0  0  0  0  0  0  0  0  0  0  0  0  0  0  0  0  1  0  0  1  0  0  0  0  1  0  1  0  0  0  0  0  0  0  1  1  0  0  0  0  0  0  0  1  0  1  0  0  0  1  1  0  0  0  0  0  0  1  1  0  0  0  1  0  0  0  0  0  0  0  0  0  0  0  0  1  0  0  0  0  0  0  0  0  0  1  0  0  0  0  0  0  0  0  0  0  1  1  0  0  0  1  0  0  1  1  0  0  0  0  0  0  0  0  0  0  1  1  0  1  0  0  0  0  1  0  0  0  0  0  0  0  0  0  0  0  0  0  0  0  0  0  0  0  0  0  0  0  1  0  0  0  1  0  0  0  1  0  0  0  0  0  0  1  0  0  0  0  1  1  0  0  0  0  		   (fitness: 1810)	NumIter = -1

		 0  0  0  0  1  1  0  0  1  0  0  0  0  0  0  0  1  0  1  0 
		 0  0  0  0  1  0  0  1  0  1  0  0  1  0  0  0  0  0  0  0 
		 0  1  0  0  0  0  0  0  0  0  0  0  0  1  0  0  0  0  0  0 
		 0  0  1  0  0  1  0  0  0  1  1  0  0  1  0  0  0  0  0  1 
		 0  1  1  0  0  0  0  0  0  0  0  0  0  0  0  0  0  0  0  0 
		 1  0  0  0  0  0  0  0  0  1  0  0  0  0  0  0  1  0  0  0 
		 1  0  0  0  0  0  0  0  0  0  0  0  0  0  0  1  0  0  0  0 
		 0  0  0  0  0  0  0  0  0  0  0  0  0  0  0  0  0  0  0  0 
		 1  1  1  0  1  0  0  0  0  0  0  0  0  0  0  0  1  1  0  0 
		 1  0  0  0  0  0  1  0  0  0  0  0  0  0  0  0  0  0  0  0 
		 0  0  0  0  0  1  0  0  0  0  0  0  0  1  1  1  1  0  0  0 
		 0  0  0  0  0  0  0  0  0  0  0  0  0  0  0  0  0  0  0  0 
		 0  0  1  0  0  1  0  0  0  0  1  0  1  0  0  0  0  0  0  0 
		 1  1  0  0  0  0  0  0  0  1  0  1  0  0  0  1  1  0  0  0 
		 0  0  0  1  1  0  0  0  1  0  0  0  0  0  0  0  0  0  0  0 
		 0  1  0  0  0  0  0  0  0  0  0  1  0  0  0  0  0  0  0  0 
		 0  0  1  1  0  0  0  1  0  0  1  1  0  0  0  0  0  0  0  0 
		 0  0  1  1  0  1  0  0  0  0  1  0  0  0  0  0  0  0  0  0 
		 0  0  0  0  0  0  0  0  0  0  0  0  0  0  1  0  0  0  1  0 
		 0  0  1  0  0  0  0  0  0  1  0  0  0  0  1  1  0  0  0  0 

DATA TYPE => BIT

	MU_RATE = 0.900000
	X_RATE = 0.700000

	POOL_SIZE = 150

		Best chrom:  0  0  0  0  0  0  1  0  0  0  0  0  0  0  0  1  0  0  0  0  0  0  0  0  0  0  0  0  1  0  0  0  0  1  0  0  0  0  0  0  0  1  0  0  0  0  1  0  0  0  0  0  0  1  0  0  1  0  0  0  0  0  0  1  0  0  0  0  0  0  0  0  0  0  0  0  0  0  0  1  0  1  0  0  0  0  0  1  0  0  0  0  0  0  0  0  0  0  0  1  0  1  0  0  0  0  0  0  0  0  0  0  0  0  0  0  0  0  0  0  0  0  0  0  0  0  0  0  0  0  0  0  0  0  0  0  0  0  0  0  0  0  0  0  0  0  0  0  0  1  0  0  0  0  0  0  0  0  0  0  1  0  0  0  0  0  0  0  0  0  0  1  0  1  0  0  0  0  0  0  1  0  0  0  0  0  0  0  0  0  0  0  0  0  0  0  0  0  0  0  0  0  0  0  0  0  0  0  1  0  0  0  0  0  0  0  0  0  1  1  1  0  0  0  0  0  0  0  0  1  0  0  0  0  0  0  0  0  0  0  0  0  0  0  0  0  0  0  0  0  0  0  0  0  0  0  0  0  0  1  0  0  0  0  0  0  0  0  0  0  0  0  0  0  0  0  0  0  0  0  0  1  0  1  0  0  0  0  0  0  0  0  0  0  0  0  0  0  0  0  0  0  0  0  0  0  0  0  1  0  0  0  0  0  0  0  0  0  0  0  0  0  0  0  0  0  0  0  1  0  1  0  0  0  0  0  0  0  0  0  0  0  0  0  1  0  0  0  0  0  0  0  0  0  0  0  0  0  0  0  0  0  0  0  1  0  0  0  0  0  0  1  0  0  0  0  0  0  0  0  0  1  0  0  0  0  0  1  0  0  0  0  0  0  1  0  0  0  0  0  		   (fitness: 391)	NumIter = -1

		 0  0  0  0  0  0  1  0  0  0  0  0  0  0  0  1  0  0  0  0 
		 0  0  0  0  0  0  0  0  1  0  0  0  0  1  0  0  0  0  0  0 
		 0  1  0  0  0  0  1  0  0  0  0  0  0  1  0  0  1  0  0  0 
		 0  0  0  1  0  0  0  0  0  0  0  0  0  0  0  0  0  0  0  1 
		 0  1  0  0  0  0  0  1  0  0  0  0  0  0  0  0  0  0  0  1 
		 0  1  0  0  0  0  0  0  0  0  0  0  0  0  0  0  0  0  0  0 
		 0  0  0  0  0  0  0  0  0  0  0  0  0  0  0  0  0  0  0  0 
		 0  0  0  0  0  0  0  0  0  1  0  0  0  0  0  0  0  0  0  0 
		 1  0  0  0  0  0  0  0  0  0  0  1  0  1  0  0  0  0  0  0 
		 1  0  0  0  0  0  0  0  0  0  0  0  0  0  0  0  0  0  0  0 
		 0  0  0  0  0  0  0  0  1  0  0  0  0  0  0  0  0  0  1  1 
		 1  0  0  0  0  0  0  0  0  1  0  0  0  0  0  0  0  0  0  0 
		 0  0  0  0  0  0  0  0  0  0  0  0  0  0  0  0  0  0  0  1 
		 0  0  0  0  0  0  0  0  0  0  0  0  0  0  0  0  0  0  0  0 
		 0  1  0  1  0  0  0  0  0  0  0  0  0  0  0  0  0  0  0  0 
		 0  0  0  0  0  0  0  0  1  0  0  0  0  0  0  0  0  0  0  0 
		 0  0  0  0  0  0  0  0  1  0  1  0  0  0  0  0  0  0  0  0 
		 0  0  0  0  1  0  0  0  0  0  0  0  0  0  0  0  0  0  0  0 
		 0  0  0  0  1  0  0  0  0  0  0  1  0  0  0  0  0  0  0  0 
		 0  1  0  0  0  0  0  1  0  0  0  0  0  0  1  0  0  0  0  0 

DATA TYPE => BIT

	MU_RATE = 0.900000
	X_RATE = 0.700000

	POOL_SIZE = 200

		Best chrom:  0  0  0  0  0  1  0  0  0  0  0  0  0  0  0  0  1  0  0  0  0  0  0  0  0  0  0  0  0  0  0  0  0  0  0  0  1  0  0  0  0  0  0  0  0  0  0  0  0  0  0  0  0  0  0  0  0  0  0  0  0  0  0  0  0  0  0  0  0  0  1  0  0  0  0  0  0  0  0  0  0  0  1  0  0  0  0  0  0  0  0  0  0  0  1  0  0  0  0  0  0  0  0  0  0  0  0  0  0  0  0  0  0  0  0  0  0  0  0  0  0  0  0  0  0  0  0  0  0  0  0  0  0  0  0  0  0  0  0  0  1  0  0  0  0  0  0  0  0  0  0  0  0  0  0  0  0  0  0  0  0  0  0  0  1  0  0  0  0  0  0  0  0  1  0  0  0  0  0  0  0  1  0  1  0  0  0  0  0  0  0  0  0  0  0  0  0  0  0  0  0  0  0  0  0  0  0  0  0  0  0  0  0  0  0  0  0  0  0  0  0  0  1  0  0  0  0  0  0  0  0  0  0  0  0  0  0  0  0  0  0  0  0  0  0  0  0  0  0  0  0  0  0  0  0  0  0  0  0  0  0  0  1  0  0  0  0  0  0  0  0  0  0  0  0  0  0  0  0  1  0  0  0  0  0  0  0  0  0  0  0  0  0  0  0  0  0  0  0  0  0  0  0  0  0  0  0  0  1  1  0  0  0  0  0  0  0  0  1  0  0  0  0  0  0  0  0  0  0  0  0  0  1  0  0  0  0  0  1  0  0  0  0  0  0  0  0  0  0  0  0  0  0  0  0  0  0  0  1  0  1  0  0  0  0  0  0  0  0  0  0  0  0  0  0  0  0  0  0  0  0  1  0  0  0  0  0  0  0  0  0  0  0  0  0  0  0  0  0  0  		   (fitness: 98)	NumIter = -1

		 0  0  0  0  0  1  0  0  0  0  0  0  0  0  0  0  1  0  0  0 
		 0  0  0  0  0  0  0  0  0  0  0  0  0  0  0  0  1  0  0  0 
		 0  0  0  0  0  0  0  0  0  0  0  0  0  0  0  0  0  0  0  0 
		 0  0  0  0  0  0  0  0  0  0  1  0  0  0  0  0  0  0  0  0 
		 0  0  1  0  0  0  0  0  0  0  0  0  0  0  1  0  0  0  0  0 
		 0  0  0  0  0  0  0  0  0  0  0  0  0  0  0  0  0  0  0  0 
		 0  0  0  0  0  0  0  0  0  0  0  0  0  0  0  0  0  0  0  0 
		 1  0  0  0  0  0  0  0  0  0  0  0  0  0  0  0  0  0  0  0 
		 0  0  0  0  1  0  0  0  0  0  0  0  0  1  0  0  0  0  0  0 
		 0  1  0  1  0  0  0  0  0  0  0  0  0  0  0  0  0  0  0  0 
		 0  0  0  0  0  0  0  0  0  0  0  0  0  0  0  0  0  0  0  0 
		 0  0  1  0  0  0  0  0  0  0  0  0  0  0  0  0  0  0  0  0 
		 0  0  0  0  0  0  0  0  0  0  0  0  0  0  0  0  0  0  0  0 
		 0  0  1  0  0  0  0  0  0  0  0  0  0  0  0  0  0  0  0  1 
		 0  0  0  0  0  0  0  0  0  0  0  0  0  0  0  0  0  0  0  0 
		 0  0  0  0  0  0  0  0  1  1  0  0  0  0  0  0  0  0  1  0 
		 0  0  0  0  0  0  0  0  0  0  0  0  1  0  0  0  0  0  1  0 
		 0  0  0  0  0  0  0  0  0  0  0  0  0  0  0  0  0  0  1  0 
		 1  0  0  0  0  0  0  0  0  0  0  0  0  0  0  0  0  0  0  0 
		 0  1  0  0  0  0  0  0  0  0  0  0  0  0  0  0  0  0  0  0 

DATA TYPE => BIT

	MU_RATE = 0.900000
	X_RATE = 0.800000

	POOL_SIZE = 100

		Best chrom:  0  0  0  0  1  1  0  0  0  0  1  0  0  1  0  0  0  0  0  0  0  0  0  0  0  0  0  0  0  0  0  0  0  1  0  0  1  0  0  0  1  0  0  0  0  0  0  1  1  0  0  1  0  0  0  0  0  0  0  1  0  0  1  0  0  1  0  0  0  1  1  0  0  0  0  0  0  1  0  1  0  0  0  0  0  0  0  0  0  0  0  0  0  0  0  0  0  0  0  0  0  0  0  0  0  0  0  0  0  0  1  0  0  0  1  0  1  1  0  0  0  0  1  1  0  0  0  0  0  0  1  0  0  0  0  0  0  1  0  0  0  0  0  0  0  0  0  0  0  0  0  0  1  0  0  0  0  1  0  0  0  0  0  0  0  0  0  0  0  0  0  0  1  0  0  0  0  0  1  1  0  0  0  0  0  0  0  1  0  0  0  0  0  0  0  0  0  1  0  0  0  1  0  0  0  0  0  1  0  0  0  0  0  0  0  0  0  0  1  0  0  0  0  1  0  0  0  0  0  0  0  0  0  0  0  0  0  0  0  0  1  1  1  0  0  0  0  0  0  0  0  0  0  0  0  1  0  1  0  0  1  1  0  0  1  0  0  0  0  0  0  0  0  1  0  0  0  0  0  0  0  0  0  0  1  0  1  0  0  0  1  1  0  0  0  0  0  0  1  1  0  0  0  0  0  0  0  0  0  0  1  0  0  1  0  1  0  0  0  0  0  0  0  0  0  0  0  0  0  0  0  1  0  0  0  0  0  0  0  0  1  1  0  0  0  1  0  0  0  0  0  0  1  0  0  1  0  0  1  0  1  0  0  0  0  0  0  0  1  0  1  0  0  0  0  1  0  0  0  0  0  0  0  0  0  0  0  0  0  0  1  0  1  0  0  1  0  0  0  0  		   (fitness: 1820)	NumIter = -1

		 0  0  0  0  1  1  0  0  0  0  1  0  0  1  0  0  0  0  0  0 
		 0  0  0  0  0  0  0  0  0  0  0  0  0  1  0  0  1  0  0  0 
		 1  0  0  0  0  0  0  1  1  0  0  1  0  0  0  0  0  0  0  1 
		 0  0  1  0  0  1  0  0  0  1  1  0  0  0  0  0  0  1  0  1 
		 0  0  0  0  0  0  0  0  0  0  0  0  0  0  0  0  0  0  0  0 
		 0  0  0  0  0  0  0  0  0  0  1  0  0  0  1  0  1  1  0  0 
		 0  0  1  1  0  0  0  0  0  0  1  0  0  0  0  0  0  1  0  0 
		 0  0  0  0  0  0  0  0  0  0  0  0  1  0  0  0  0  1  0  0 
		 0  0  0  0  0  0  0  0  0  0  0  0  1  0  0  0  0  0  1  1 
		 0  0  0  0  0  0  0  1  0  0  0  0  0  0  0  0  0  1  0  0 
		 0  1  0  0  0  0  0  1  0  0  0  0  0  0  0  0  0  0  1  0 
		 0  0  0  1  0  0  0  0  0  0  0  0  0  0  0  0  0  0  0  0 
		 1  1  1  0  0  0  0  0  0  0  0  0  0  0  0  1  0  1  0  0 
		 1  1  0  0  1  0  0  0  0  0  0  0  0  1  0  0  0  0  0  0 
		 0  0  0  0  1  0  1  0  0  0  1  1  0  0  0  0  0  0  1  1 
		 0  0  0  0  0  0  0  0  0  0  1  0  0  1  0  1  0  0  0  0 
		 0  0  0  0  0  0  0  0  0  0  0  1  0  0  0  0  0  0  0  0 
		 1  1  0  0  0  1  0  0  0  0  0  0  1  0  0  1  0  0  1  0 
		 1  0  0  0  0  0  0  0  1  0  1  0  0  0  0  1  0  0  0  0 
		 0  0  0  0  0  0  0  0  0  0  1  0  1  0  0  1  0  0  0  0 

DATA TYPE => BIT

	MU_RATE = 0.900000
	X_RATE = 0.800000

	POOL_SIZE = 150

		Best chrom:  1  0  0  0  0  0  0  0  0  1  0  0  0  0  0  0  0  1  0  0  0  1  0  0  0  0  0  0  0  0  0  0  0  0  1  0  0  0  0  0  0  0  0  0  0  0  0  0  1  0  0  0  0  0  1  0  0  0  1  0  0  0  0  0  0  1  0  0  0  0  0  0  0  0  0  0  0  0  1  0  0  0  0  0  0  1  0  0  0  0  0  0  0  0  0  0  0  0  0  0  0  0  0  0  0  0  0  0  0  0  0  0  0  0  0  0  0  0  1  0  0  1  0  0  0  1  0  0  0  0  0  0  0  0  0  0  0  0  0  0  0  0  0  1  0  0  0  0  0  0  0  0  0  0  0  0  0  1  0  0  0  0  0  0  0  0  0  0  0  0  0  0  0  0  0  0  0  0  0  0  0  0  0  0  0  0  0  0  0  0  0  0  0  0  0  0  0  0  0  0  0  0  1  0  0  0  0  0  0  0  0  0  0  0  0  0  0  0  0  0  1  0  0  0  0  0  0  0  0  0  0  0  0  0  1  1  0  0  0  1  0  0  0  0  0  0  0  0  0  0  0  0  0  0  0  0  0  0  0  0  0  0  1  0  1  0  0  0  0  0  0  0  1  0  0  0  0  0  1  0  0  0  0  0  1  0  0  0  0  0  0  0  0  0  0  0  0  0  1  0  1  1  0  1  0  0  0  0  0  0  0  0  0  0  0  0  0  0  0  0  0  0  0  0  0  0  1  0  0  0  0  0  0  0  0  0  0  0  0  0  0  0  0  0  0  1  0  0  0  0  0  0  0  1  0  0  0  0  0  0  0  0  1  0  0  0  0  0  0  0  0  1  0  0  0  0  0  0  0  0  1  0  0  0  0  1  0  0  1  0  0  0  0  1  0  0  1  0  0  0  		   (fitness: 489)	NumIter = -1

		 1  0  0  0  0  0  0  0  0  1  0  0  0  0  0  0  0  1  0  0 
		 0  1  0  0  0  0  0  0  0  0  0  0  0  0  1  0  0  0  0  0 
		 0  0  0  0  0  0  0  0  1  0  0  0  0  0  1  0  0  0  1  0 
		 0  0  0  0  0  1  0  0  0  0  0  0  0  0  0  0  0  0  1  0 
		 0  0  0  0  0  1  0  0  0  0  0  0  0  0  0  0  0  0  0  0 
		 0  0  0  0  0  0  0  0  0  0  0  0  0  0  0  0  0  0  1  0 
		 0  1  0  0  0  1  0  0  0  0  0  0  0  0  0  0  0  0  0  0 
		 0  0  0  1  0  0  0  0  0  0  0  0  0  0  0  0  0  1  0  0 
		 0  0  0  0  0  0  0  0  0  0  0  0  0  0  0  0  0  0  0  0 
		 0  0  0  0  0  0  0  0  0  0  0  0  0  0  0  0  0  0  0  0 
		 0  0  1  0  0  0  0  0  0  0  0  0  0  0  0  0  0  0  0  0 
		 1  0  0  0  0  0  0  0  0  0  0  0  0  0  1  1  0  0  0  1 
		 0  0  0  0  0  0  0  0  0  0  0  0  0  0  0  0  0  0  0  0 
		 0  0  1  0  1  0  0  0  0  0  0  0  1  0  0  0  0  0  1  0 
		 0  0  0  0  1  0  0  0  0  0  0  0  0  0  0  0  0  0  1  0 
		 1  1  0  1  0  0  0  0  0  0  0  0  0  0  0  0  0  0  0  0 
		 0  0  0  0  0  0  1  0  0  0  0  0  0  0  0  0  0  0  0  0 
		 0  0  0  0  0  1  0  0  0  0  0  0  0  1  0  0  0  0  0  0 
		 0  0  1  0  0  0  0  0  0  0  0  1  0  0  0  0  0  0  0  0 
		 1  0  0  0  0  1  0  0  1  0  0  0  0  1  0  0  1  0  0  0 

DATA TYPE => BIT

	MU_RATE = 0.900000
	X_RATE = 0.800000

	POOL_SIZE = 200

		Best chrom:  0  0  0  0  0  0  0  0  0  0  1  0  0  0  0  0  0  0  0  1  0  0  0  0  0  0  1  0  0  0  0  0  0  0  1  0  0  0  0  0  0  0  0  0  0  0  0  0  0  0  0  0  0  0  0  0  0  0  0  0  0  1  0  0  0  0  0  0  1  0  0  0  0  0  0  0  0  0  0  0  0  0  0  0  0  1  0  0  0  0  0  0  0  0  0  0  0  0  0  0  0  0  0  0  0  0  0  0  0  0  0  0  1  0  1  0  0  1  0  0  1  1  0  0  0  0  0  0  0  0  0  0  0  0  0  0  0  0  0  0  0  0  0  0  0  0  0  0  0  0  0  0  0  0  0  0  0  0  0  0  0  0  0  0  0  0  0  0  0  0  0  0  0  0  0  0  0  0  0  0  0  0  0  0  0  0  0  0  0  0  0  0  0  0  0  0  0  0  0  0  0  0  0  1  0  0  0  0  0  0  0  0  0  0  0  0  0  0  0  0  0  0  0  0  0  1  0  0  0  0  0  0  0  0  0  0  0  0  0  0  0  0  1  0  0  0  0  0  0  0  0  0  0  0  0  0  0  0  0  0  0  0  0  0  0  0  0  0  0  0  0  0  0  0  0  0  0  0  0  0  0  0  0  1  0  0  0  0  0  0  1  0  0  0  0  0  0  0  0  0  0  0  0  0  0  0  0  0  0  0  0  0  1  0  0  0  0  0  0  0  0  0  0  0  0  0  0  0  0  0  0  0  0  0  0  0  0  0  1  0  0  0  0  0  0  0  0  0  0  0  0  0  0  0  0  1  0  0  0  0  0  0  0  0  0  0  0  0  0  0  0  0  0  0  0  0  0  0  0  0  0  1  0  0  0  0  0  0  0  0  0  1  0  0  0  0  0  0  0  0  		   (fitness: 96)	NumIter = -1

		 0  0  0  0  0  0  0  0  0  0  1  0  0  0  0  0  0  0  0  1 
		 0  0  0  0  0  0  1  0  0  0  0  0  0  0  1  0  0  0  0  0 
		 0  0  0  0  0  0  0  0  0  0  0  0  0  0  0  0  0  0  0  0 
		 0  1  0  0  0  0  0  0  1  0  0  0  0  0  0  0  0  0  0  0 
		 0  0  0  0  0  1  0  0  0  0  0  0  0  0  0  0  0  0  0  0 
		 0  0  0  0  0  0  0  0  0  0  0  0  1  0  1  0  0  1  0  0 
		 1  1  0  0  0  0  0  0  0  0  0  0  0  0  0  0  0  0  0  0 
		 0  0  0  0  0  0  0  0  0  0  0  0  0  0  0  0  0  0  0  0 
		 0  0  0  0  0  0  0  0  0  0  0  0  0  0  0  0  0  0  0  0 
		 0  0  0  0  0  0  0  0  0  0  0  0  0  0  0  0  0  0  0  0 
		 0  0  0  1  0  0  0  0  0  0  0  0  0  0  0  0  0  0  0  0 
		 0  0  0  0  0  1  0  0  0  0  0  0  0  0  0  0  0  0  0  0 
		 0  0  1  0  0  0  0  0  0  0  0  0  0  0  0  0  0  0  0  0 
		 0  0  0  0  0  0  0  0  0  0  0  0  0  0  0  0  0  0  0  0 
		 0  0  0  1  0  0  0  0  0  0  1  0  0  0  0  0  0  0  0  0 
		 0  0  0  0  0  0  0  0  0  0  0  0  1  0  0  0  0  0  0  0 
		 0  0  0  0  0  0  0  0  0  0  0  0  0  0  0  0  0  0  1  0 
		 0  0  0  0  0  0  0  0  0  0  0  0  0  0  0  1  0  0  0  0 
		 0  0  0  0  0  0  0  0  0  0  0  0  0  0  0  0  0  0  0  0 
		 0  1  0  0  0  0  0  0  0  0  0  1  0  0  0  0  0  0  0  0 




DATA TYPE => PERM

	MU_RATE = 0.700000
	X_RATE = 0.600000

	POOL_SIZE = 100

		Best chrom:  14  18  15  9  4  17  3  8  13  11  1  20  6  16  2  19  12  10  7  5  		   (fitness: 0)	NumIter = 96

		 0  0  0  0  0  0  0  0  0  0  0  0  0  1  0  0  0  0  0  0 
		 0  0  0  0  0  0  0  0  0  0  0  0  0  0  0  0  0  1  0  0 
		 0  0  0  0  0  0  0  0  0  0  0  0  0  0  1  0  0  0  0  0 
		 0  0  0  0  0  0  0  0  1  0  0  0  0  0  0  0  0  0  0  0 
		 0  0  0  1  0  0  0  0  0  0  0  0  0  0  0  0  0  0  0  0 
		 0  0  0  0  0  0  0  0  0  0  0  0  0  0  0  0  1  0  0  0 
		 0  0  1  0  0  0  0  0  0  0  0  0  0  0  0  0  0  0  0  0 
		 0  0  0  0  0  0  0  1  0  0  0  0  0  0  0  0  0  0  0  0 
		 0  0  0  0  0  0  0  0  0  0  0  0  1  0  0  0  0  0  0  0 
		 0  0  0  0  0  0  0  0  0  0  1  0  0  0  0  0  0  0  0  0 
		 1  0  0  0  0  0  0  0  0  0  0  0  0  0  0  0  0  0  0  0 
		 0  0  0  0  0  0  0  0  0  0  0  0  0  0  0  0  0  0  0  1 
		 0  0  0  0  0  1  0  0  0  0  0  0  0  0  0  0  0  0  0  0 
		 0  0  0  0  0  0  0  0  0  0  0  0  0  0  0  1  0  0  0  0 
		 0  1  0  0  0  0  0  0  0  0  0  0  0  0  0  0  0  0  0  0 
		 0  0  0  0  0  0  0  0  0  0  0  0  0  0  0  0  0  0  1  0 
		 0  0  0  0  0  0  0  0  0  0  0  1  0  0  0  0  0  0  0  0 
		 0  0  0  0  0  0  0  0  0  1  0  0  0  0  0  0  0  0  0  0 
		 0  0  0  0  0  0  1  0  0  0  0  0  0  0  0  0  0  0  0  0 
		 0  0  0  0  1  0  0  0  0  0  0  0  0  0  0  0  0  0  0  0 

DATA TYPE => PERM

	MU_RATE = 0.700000
	X_RATE = 0.600000

	POOL_SIZE = 150

		Best chrom:  9  7  1  16  18  5  8  17  12  20  13  6  4  2  11  3  14  10  19  15  		   (fitness: 0)	NumIter = 193

		 0  0  0  0  0  0  0  0  1  0  0  0  0  0  0  0  0  0  0  0 
		 0  0  0  0  0  0  1  0  0  0  0  0  0  0  0  0  0  0  0  0 
		 1  0  0  0  0  0  0  0  0  0  0  0  0  0  0  0  0  0  0  0 
		 0  0  0  0  0  0  0  0  0  0  0  0  0  0  0  1  0  0  0  0 
		 0  0  0  0  0  0  0  0  0  0  0  0  0  0  0  0  0  1  0  0 
		 0  0  0  0  1  0  0  0  0  0  0  0  0  0  0  0  0  0  0  0 
		 0  0  0  0  0  0  0  1  0  0  0  0  0  0  0  0  0  0  0  0 
		 0  0  0  0  0  0  0  0  0  0  0  0  0  0  0  0  1  0  0  0 
		 0  0  0  0  0  0  0  0  0  0  0  1  0  0  0  0  0  0  0  0 
		 0  0  0  0  0  0  0  0  0  0  0  0  0  0  0  0  0  0  0  1 
		 0  0  0  0  0  0  0  0  0  0  0  0  1  0  0  0  0  0  0  0 
		 0  0  0  0  0  1  0  0  0  0  0  0  0  0  0  0  0  0  0  0 
		 0  0  0  1  0  0  0  0  0  0  0  0  0  0  0  0  0  0  0  0 
		 0  1  0  0  0  0  0  0  0  0  0  0  0  0  0  0  0  0  0  0 
		 0  0  0  0  0  0  0  0  0  0  1  0  0  0  0  0  0  0  0  0 
		 0  0  1  0  0  0  0  0  0  0  0  0  0  0  0  0  0  0  0  0 
		 0  0  0  0  0  0  0  0  0  0  0  0  0  1  0  0  0  0  0  0 
		 0  0  0  0  0  0  0  0  0  1  0  0  0  0  0  0  0  0  0  0 
		 0  0  0  0  0  0  0  0  0  0  0  0  0  0  0  0  0  0  1  0 
		 0  0  0  0  0  0  0  0  0  0  0  0  0  0  1  0  0  0  0  0 

DATA TYPE => PERM

	MU_RATE = 0.700000
	X_RATE = 0.600000

	POOL_SIZE = 200

		Best chrom:  10  13  8  1  15  19  2  11  17  6  3  18  4  14  9  20  5  16  12  7  		   (fitness: 9)	NumIter = -1

		 0  0  0  0  0  0  0  0  0  1  0  0  0  0  0  0  0  0  0  0 
		 0  0  0  0  0  0  0  0  0  0  0  0  1  0  0  0  0  0  0  0 
		 0  0  0  0  0  0  0  1  0  0  0  0  0  0  0  0  0  0  0  0 
		 1  0  0  0  0  0  0  0  0  0  0  0  0  0  0  0  0  0  0  0 
		 0  0  0  0  0  0  0  0  0  0  0  0  0  0  1  0  0  0  0  0 
		 0  0  0  0  0  0  0  0  0  0  0  0  0  0  0  0  0  0  1  0 
		 0  1  0  0  0  0  0  0  0  0  0  0  0  0  0  0  0  0  0  0 
		 0  0  0  0  0  0  0  0  0  0  1  0  0  0  0  0  0  0  0  0 
		 0  0  0  0  0  0  0  0  0  0  0  0  0  0  0  0  1  0  0  0 
		 0  0  0  0  0  1  0  0  0  0  0  0  0  0  0  0  0  0  0  0 
		 0  0  1  0  0  0  0  0  0  0  0  0  0  0  0  0  0  0  0  0 
		 0  0  0  0  0  0  0  0  0  0  0  0  0  0  0  0  0  1  0  0 
		 0  0  0  1  0  0 